
trade_company_indus = {
	color = { 135 104 85 }
	
	provinces = {
		508 2114 451 453 578 3096 452 3842 449 3097 3098 3105 2115 2116 509 3107 3109 2113 
		3102 2226 3108 2556 2722 3104 3103 2112 2721 3101 2584 2717 505 2716 504 576 575 
		434 437 3100 448 577 2715 3834 5312 5313 5327 2718 2719 5243 
	}
	
	# Generic
	names = {
		name = "TRADE_COMPANY_INDUS_Root_GetName"
	}
	names = {
		name = "TRADE_COMPANY_INDUS_India_Trade_Company"
	}
}

trade_company_delhi = {
	color = { 135 104 185 }
	
	provinces = {
		510 511 521 522 523 524 550 564 2163 2555 2631 2700 2701 2704 2705 2706 2720 3106 
		3110 3111 3112 3113 3114 3115 3118 3119 3120 3123 3126 3127 3128 3131 528 3138 554 
		3198 2691 4124 557 4125 2692 2702 3133 3132 555 3130 2557 2632 3135 2688 3202 2210 
		3129 3134 3136 2690 558 2689 3184 3185 5314 5315 5316 5317 5318 5328 5329 5330 5331 
		5332 5333 5334 5335 5336 5337 5338 5339 5340 5341 5342 5343 5344 5345 5352 5353 5354 
	}
	
	# Generic
	names = {
		name = "TRADE_COMPANY_DELHI_Root_GetName"
	}
	names = {
		name = "TRADE_COMPANY_DELHI_India_Trade_Company"
	}
}

trade_company_kutch = {
	color = { 135 184 85 }
	
	provinces = {
		503 515 516 2709 2710 2711 2712 2713 2714 2723 3124 3125 3199 3238 517 2568 5310 
		5311 3142 2211 3141 518 2707 514 3122 525 2708 526 3140 3116 3117 520 3137 512 519 
	}
	
	# Generic
	names = {
		name = "TRADE_COMPANY_KUTCH_Root_GetName"
	}
	names = {
		name = "TRADE_COMPANY_KUTCH_India_Trade_Company"
	}
}

trade_company_konkan = {
	color = { 185 104 85 }
	
	provinces = {
		527 529 530 1587 2212 2243 2244 2569 2679 2680 2681 3144 3145 3146 3147 3148 3149 
		3150 3164 3165 3166 3168 4056 2677 2678 5307 5308 3151 531 3152 3143 
	}
	
	# Generic
	names = {
		name = "TRADE_COMPANY_KONKAN_Root_GetName"
	}
	names = {
		name = "TRADE_COMPANY_KONKAN_India_Trade_Company"
	}
}

trade_company_ceylon = {
	color = { 185 104 185 }
	
	provinces = {
		421 535 536 537 538 539 540 541 542 543 544 547 572 573 1101 1248 1520 2245 2336 
		2337 2628 2629 2672 2673 2674 2675 2676 3153 3154 3155 3156 3157 3158 3159 3201 
		4078 4079 5292 5293 5294 5295 5297 5299 5300 5301 5302 532 5296 5298 533 534 2570 
	}
	
	# Generic
	names = {
		name = "TRADE_COMPANY_CEYLON_Root_GetName"
	}
	names = {
		name = "TRADE_COMPANY_CEYLON_India_Trade_Company"
	}
}

trade_company_orissa = {
	color = { 185 184 85 }
	
	provinces = {
		556 2554 2684 2686 3167 3170 3171 3180 3181 548 549 552 559 560 2558 2682 2683 
		2687 3173 3177 3178 3179 3200 3204 2685 3139 3169 3172 5319 5320 5321 5322 5323 
		5324 3175 5309 2630 3174 553 5305 5304 507 2627 546 5303 545 3160 3161 3162 3163 
		5306 2703 
	}
	
	# Generic
	names = {
		name = "TRADE_COMPANY_ORISSA_Root_GetName"
	}
	names = {
		name = "TRADE_COMPANY_ORISSA_India_Trade_Company"
	}
}

trade_company_bengal = {
	color = { 135 14 85 }
	
	provinces = {
		561 562 563 565 566 567 568 570 571 1588 2693 2694 2695 2696 2698 2699 3176 3182 
		3183 3186 3187 3188 3189 3190 3191 3192 3193 3203 3205 3206 4219 5325 5326 5346 
		5347 5348 5349 5355 5356 5357 5358 3214 585 579 5244 
	}
	
	# Generic
	names = {
		name = "TRADE_COMPANY_BENGAL_Root_GetName"
	}
	names = {
		name = "TRADE_COMPANY_BENGAL_India_Trade_Company"
	}
}

trade_company_irrawady = {
	color = { 184 152 93 }
	
	provinces = {
		661 1759 2323 2324 2326 2424 2423 2739 2753 2822 2823 3197 3215 3216 3217 3235 
		352 569 580 581 582 583 584 586 587 588 2426 2427 2428 2728 3194 3195 3196 3234 
		2429 2425 2727 3903 3904 3905 3906 3907 4218 5360 5500 5501 4046 590 3218 4043 
		3221 591 4049 
	}
	
	# Specific
	# Generic
	names = {
		name = "TRADE_COMPANY_IRRAWADY_Root_GetName"
	}
	names = {
		name = "TRADE_COMPANY_IRRAWADY_Indochina_Trade_Company"
	}
}

trade_company_indochina = {
	color = { 84 152 93 }
	
	provinces = {
		408 589 592 593 600 601 602 603 604 605 608 609 611 612 614 615 2306 2319 2320 
		2321 2322 2417 2420 2421 2422 2668 2669 2670 2729 2732 2733 2734 2817 2818 2819 
		2820 2821 2825 2826 2827 2829 3219 3220 3223 3224 3225 3226 3227 3228 3232 3233 
		3313 3231 3908 3909 3930 3931 3932 3933 3934 3935 4050 4212 4213 4215 4217 
	}
	
	# Specific
	# Generic
	names = {
		name = "TRADE_COMPANY_INDOCHINA_Root_GetName"
	}
	names = {
		name = "TRADE_COMPANY_INDOCHINA_Indochina_Trade_Company"
	}
}

trade_company_malacca = {
	color = { 50 240 60 }
	
	provinces = {
		4048 420 574 2091 3929 636 637 738 3340 4047 407 597 3910 596 3239 2830 598 3315 
		599 2828 2735 2824 3236 3237 594 2736 2737 595 4216 3342 2092 629 3222 2738 
	}
	
	names = {
		name = "TRADE_COMPANY_MALACCA_Root_GetName"
	}
	names = {
		name = "TRADE_COMPANY_MALACCA_Indonesia_Trade_Company"
	}
}

trade_company_indonesia = {
	color = { 100 20 235 }
	
	provinces = {
		624 625 626 627 628 630 631 632 633 634 635 645 646 647 648 649 716 907 1042 1642 
		2104 2105 2106 2107 2108 2109 2110 2111 2430 2431 2525 3922 3923 3924 3925 3926 
		3927 3339 638 639 2434 2433 2432 4044 4045 4042 641 642 644 643 3928 640 2089 3341 
		2090 2101 2097 3913 617 2093 3912 3911 618 3915 2094 2095 3916 621 3919 620 3921 
		659 622 623 3918 2096 619 3914 2102 2103 3920 2100 3917 2099 3940 2098 5361 5362 
		4237 4239 
	}
	
	names = {
		name = "TRADE_COMPANY_INDONESIA_Root_GetName"
	}
	names = {
		name = "TRADE_COMPANY_INDONESIA_Indonesia_Trade_Company"
	}
}

trade_company_japan = {
	color = { 101  5  37 }
	
	provinces = {
		1019 1025 1033 2277 2279 2280 2281 2282 2283 2284 2285 2286 2287 2288 2289 2290 
		2291 2292 2293 2294 2295 2296 2297 2298 2299 2300 2302 2435 2796 3943 3944 3945 
		3946 3947 3948 3949 3950 3951 3952 3953 3954 3955 3956 3957 3958 3959 3960 3961 
		3973 3974 
	}
	
	# Specific
	# Generic
	names = {
		name = "TRADE_COMPANY_JAPAN_Root_GetName"
	}
	names = {
		name = "TRADE_COMPANY_JAPAN_Japan_Trade_Company"
	}
}

trade_company_nagasaki = {
	color = { 101  5  37 }
	
	provinces = {
		877 889 2461 735 736 737 2233 2276 2278 1012 1013 1014 1015 1016 1017 1018 1020 
		1021 1022 1023 1024 1026 1027 1028 1029 1030 1031 1032 2803 2804 2805 3962 3963 
		3964 3965 3966 3967 3968 3969 3970 3971 3972 
	}
	
	# Specific
	# Generic
	names = {
		name = "TRADE_COMPANY_NAGASAKI_Root_GetName"
	}
	names = {
		name = "TRADE_COMPANY_NAGASAKI_Japan_Trade_Company"
	}
}

trade_company_manchuria = {
	color = { 21 198 214 }
	
	provinces = {
		2801 734 2806 733 2802 1822 3686 2744 2301 723 725 726 727 728 729 730 731 732 
		1047 1048 1049 1050 1052 1058 2328 2800 3241 3242 3243 3244 3245 3246 3247 3248 
		3249 3250 3251 3252 3253 3254 3255 3256 3258 4031 4032 4033 1034 1035 1036 1037 
		1038 1039 1040 1044 4194 2249 4035 4036 4037 707 2266 2248 4038 
	}
	
	# Specific
	# Generic
	names = {
		name = "TRADE_COMPANY_MANCHURIA_Root_GetName"
	}
	names = {
		name = "TRADE_COMPANY_MANCHURIA_China_Trade_Company"
	}
}

trade_company_beijing = {
	color = { 221 98 214 }
	
	provinces = {
		697 698 699 700 702 703 704 705 706 708 709 713 724 1041 2148 2246 2247 2265 2467 
		2468 2471 2491 2492 2476 2560 3240 3263 5471 5478 5479 5480 5481 5470 5469 5472 
		5385 5386 5391 5390 5384 5382 5387 5383 5380 5381 5379 5378 5389 5388 5371 5372 
		5482 5483 5484 5373 5374 5375 5376 5377 
	}
	
	# Specific
	# Generic
	names = {
		name = "TRADE_COMPANY_BEIJING_Root_GetName"
	}
	names = {
		name = "TRADE_COMPANY_BEIJING_China_Trade_Company"
	}
}

trade_company_yangtze = {
	color = { 221 198 14 }
	
	provinces = {
		680 684 686 687 688 689 690 691 692 693 694 695 696 701 712 1046 1068 1089 1172 
		2125 2141 2142 2144 2145 2147 2149 2150 2272 2472 2477 2478 2480 2484 2485 2490 
		2493 2494 2605 2606 2607 2613 3977 5476 5473 5474 5402 5403 5404 5392 5393 5395 
		5394 5405 5406 5475 5466 5467 5468 5465 5463 5462 5460 5459 5464 5432 5433 5434 
		5435 5425 5424 5426 5427 5428 5422 5423 5410 5411 5417 5409 5412 5414 5413 5416 
		5401 5400 5399 5398 5415 5408 5397 5407 5396 
	}
	
	# Specific
	# Generic
	names = {
		name = "TRADE_COMPANY_YANGTZE_Root_GetName"
	}
	names = {
		name = "TRADE_COMPANY_YANGTZE_China_Trade_Company"
	}
}

trade_company_guangzhou = {
	color = { 221 198 214 }
	
	provinces = {
		662 663 667 668 669 670 671 672 673 675 676 677 678 679 681 682 683 710 711 1053 
		1758 1760 2073 2078 2082 2085 2086 2117 2121 2250 2462 2464 2486 2488 5499 5498 
		5497 5442 5443 5444 5445 5456 5457 5431 5429 5436 5437 5440 5441 5438 5439 5430 
		5458 5420 5421 5419 5418 
	}
	
	# Specific
	# Generic
	names = {
		name = "TRADE_COMPANY_GUANGZHOU_Root_GetName"
	}
	names = {
		name = "TRADE_COMPANY_GUANGZHOU_China_Trade_Company"
	}
}

trade_company_manilla = {
	color = { 71 98 64 }
	
	provinces = {
		651 2215 658 2216 657 2217 652 2213 653 654 656 2214 655 2586 2303 2304 2305 607 
		606 616 2317 3230 2318 3229 4214 2397 613 2418 2419 4211 2396 610 2730 3936 2395 
		2325 3937 3938 2731 3314 2393 2394 3939 674 
	}
	
	# Specific
	# Generic
	names = {
		name = "TRADE_COMPANY_MANILLA_Root_GetName"
	}
	names = {
		name = "TRADE_COMPANY_MANILLA_China_Trade_Company"
	}
}
