estate_bahamid_disaster = {
	potential = {
		tag = BAH
		primary_culture = dakani
		has_country_flag = deccan_warning_1
		had_country_flag = { flag = deccan_warning_1 days = 5475 }
		is_year = 1450 #No matter how bad things get the state should atleast last untill this date.
		absolutism = 20 #As long as this state stays very decentralized it isn't as important where the capital is or who is Sultan
	}
	
	can_start = {
		OR = {
			has_country_modifier = gharbian_society	#If one faction becomes entirely dominant then splitting becomes much more likely
			has_country_modifier = deccani_control	#If one faction becomes entirely dominant then splitting becomes much more likely
			AND = {
				has_country_modifier = deccani_dominance
				dominant_culture = marathi
			}
			AND = {
				has_country_modifier = deccani_dominance
				dominant_culture = telegu
			}
			AND = {
				has_country_modifier = deccani_dominance
				dominant_culture = kannada
			}
			AND = {
				has_country_modifier = gharbian_dominance
				dominant_culture = marathi
			}
			AND = {
				has_country_modifier = gharbian_dominance
				dominant_culture = telegu
			}
			AND = {
				has_country_modifier = gharbian_dominance
				dominant_culture = kannada
			}
			NOT = { legitimacy = 30 }	#at very low legitimacy this can happen regardless of the factions
		}
		OR = {
			AND = {
				stability = 3
				NOT = { legitimacy = 60 }
			}
			AND = {
				NOT = { stability = 3 }
				NOT = { legitimacy = 65 }
			}
			AND = {
				NOT = { stability = 2 }
				NOT = { legitimacy = 70 }
			}
			AND = {
				NOT = { stability = 1 }
				NOT = { legitimacy = 75 }
			}
			AND = {
				NOT = { stability = 0 }
				NOT = { legitimacy = 80 }
			}
			AND = {
				NOT = { stability = -1 }
				NOT = { legitimacy = 85 }
			}
			AND = {
				NOT = { stability = -2 }
				NOT = { legitimacy = 95 }
			}
			NOT = { dynasty = "Bahmanid" }
		}
		NOT = { has_global_flag = bahmani_breakup }
	}
	
	can_stop = {
		always = no
	}
	
	progress = {
		modifier = {
			factor = 0
			is_at_war = yes
		}
		modifier = {
			factor = 5
			is_at_war = no
		}
	}
	
	can_end = {
		always = yes
	}
	
	modifier = {
		legitimacy = -0.1
		prestige_decay = 0.05
	}
	
	on_start = bahmani_events.002 #declare indepenedence
	on_end = flavor_interregnum.3 #Brought back under heel
	
	on_monthly = {
		events = {
			
		}
		random_events = {
		}
	}
}

