#estate_cossacks_disaster = {
#	potential = {
#		NOT = { culture_group = east_slavic }
#		OR = {
#			NOT = { owns = 300 }
#			exists = ZAZ
#		}
#		has_dlc = "The Cossacks"
#		has_estate = estate_cossacks
#		estate_influence = {
#			estate = estate_cossacks
#			influence = 60
#		}
#		OR = {
#			NOT = { has_country_flag = cossack_estate_triggered }
#			had_country_flag = {
#				flag = cossack_estate_triggered
#				days = 365
#			}
#		}
#	}
#
#
#	can_start = {
#		has_any_disaster = no
#		estate_influence = {
#			estate = estate_cossacks
#			influence = 80
#		}
#	}
#	
#	can_stop = {
#		NOT = {
#			estate_influence = {
#				estate = estate_cossacks
#				influence = 80
#			}		
#		}
#	}
#	
#	progress = {
#		modifier = {
#			factor = 1
#			estate_influence = {
#				estate = estate_cossacks
#				influence = 80
#			}
#			hidden_trigger = {
#				NOT = {
#					estate_influence = {
#						estate = estate_cossacks
#						influence = 85
#					}			
#				}			
#			}
#		}
#		modifier = {
#			factor = 2
#			estate_influence = {
#				estate = estate_cossacks
#				influence = 85
#			}
#			hidden_trigger = {
#				NOT = {
#					estate_influence = {
#						estate = estate_cossacks
#						influence = 90
#					}			
#				}			
#			}
#		}
#		modifier = {
#			factor = 3
#			estate_influence = {
#				estate = estate_cossacks
#				influence = 90
#			}
#			hidden_trigger = {
#				NOT = {
#					estate_influence = {
#						estate = estate_cossacks
#						influence = 95
#					}			
#				}			
#			}
#		}	
#		modifier = {
#			factor = 4
#			estate_influence = {
#				estate = estate_cossacks
#				influence = 95
#			}
#			hidden_trigger = {
#				NOT = {
#					estate_influence = {
#						estate = estate_cossacks
#						influence = 100
#					}			
#				}			
#			}
#		}	
#		modifier = {
#			factor = 5
#			estate_influence = {
#				estate = estate_cossacks
#				influence = 100
#			}
#		}		
#	}
#	
#	can_end = {
#		always = yes
#	}
#	
#	modifier = {
#		prestige_decay = 0.05
#	}
#
#	on_start = estate_disasters.10
#	on_end = estate_disasters.14
#	
#	on_monthly = {
#	}
#}

