#Italian power system
#--inspired by the original Admin Efficiency system by Helius (et al) for SRI and MM and Status quo by alvya

namespace = italian_power

country_event = { # big remote event to determine Italian power status
	
	id = italian_power.1
	title = "italian_power.EVTNAME1"
	desc = "italian_power.EVTDESC1"
	picture = ITALIAN_POWER_eventPicture
	
	trigger = {
		NOT = {
			REB = { has_country_modifier = italian_power_admin }
		}
		NOT = { exists = ITA }
		NOT = { exists = ITC }
		NOT = { exists = ITD }
		NOT = { exists = ITE }
		NOT = {
			PAP = { has_country_modifier = kingdom_of_god }
		}
		ai = yes
	}
	# event will actually happen almost immediately, as all AI countries are eligible
	mean_time_to_happen = { months = 12 }
	
	immediate = {
		# delay timer so that event triggers approx once per year
		REB = {
			add_country_modifier = {
				name = "italian_power_admin"
				duration = 365
			}
		}
		# remove last round of modifiers
		every_country = {
			remove_country_modifier = insignificant_italian_power
			remove_country_modifier = local_italian_power
			remove_country_modifier = regional_italian_power
			remove_country_modifier = major_italian_power
			remove_country_modifier = dominant_italian_power
			remove_country_modifier = menacing_italian_power
		}
	}
	
	option = {
		name = "italian_power.EVTOPTA1"
		
		# Calculate Italian power status
		
		every_country = {
			limit = {
				check_variable = { which = italian_power value = 1 }
			}
			set_variable = { which = italian_power value = 0 }
		}
		
		every_country = {
			limit = {
				capital_scope = {
					superregion = italy_superregion
				}
				OR = {
					culture_group = latin
					culture_group = napolitan
				}
			}
			set_variable = { which = italian_power value = 1 }
			set_variable = { which = italian_nations value = 0 }
		}
		every_province = {
			limit = {
				is_capital = yes
				superregion = italy_superregion
				owner = { is_free_or_tributary_trigger = yes }
			}
			every_country = {
				limit = {
					capital_scope = {
						superregion = italy_superregion
					}
					OR = {
						culture_group = latin
						culture_group = napolitan
					}
				}
				change_variable = { which = italian_nations value = 1 }
			}
		}
		every_country = {
			limit = {
				capital_scope = {
					superregion = italy_superregion
				}
			}
			set_variable = { which = italy_home_dev value = 0 }
			set_variable = { which = italy_total_dev value = 0 }
			set_variable = { which = italy_outside_dev value = 0 }
		}
		
		every_country = {
			limit = {
				check_variable = { which = italian_power value = 1 }
				check_variable = { which = italian_nations value = 5 }
			}
			
			# base power:
			every_owned_province = {
				limit = {
					owner = {
						capital_scope = {
							superregion = italy_superregion
						}
					}
				}
				set_variable = { which = italy_total_dev value = 0 }
				set_variable = { which = italy_province_dev value = 0 }
				set_variable = { which = italy_province_urban value = 0 }
				set_variable = { which = italy_home_dev value = 0 }
				
				export_to_variable = {
					which = italy_province_dev
					value = development
					#	who = THIS
				}
				change_variable = { which = italy_province_urban    which = urban_population }
				
				if = {
					limit = {
						has_province_modifier = minor_center_of_trade
						#is_capital = yes
					}
					change_variable = { which = italy_home_dev value = 5 }
				}
				else_if = {
					limit = {
						has_province_modifier = important_center_of_trade
						#is_capital = yes
					}
					change_variable = { which = italy_home_dev value = 10 }
				}
				else_if = {
					limit = {
						has_province_modifier = major_center_of_trade
						#is_capital = yes
					}
					change_variable = { which = italy_home_dev value = 20 }
				}
				else_if = {
					limit = {
						has_province_modifier = dominant_center_of_trade
						#is_capital = yes
					}
					change_variable = { which = italy_home_dev value = 30 }
				}
				if = {
					limit = {
						has_province_modifier = minor_center_of_production
						#is_capital = yes
					}
					change_variable = { which = italy_home_dev value = 5 }
				}
				else_if = {
					limit = {
						has_province_modifier = important_center_of_production
						#is_capital = yes
					}
					change_variable = { which = italy_home_dev value = 10 }
				}
				else_if = {
					limit = {
						has_province_modifier = major_center_of_production
						#is_capital = yes
					}
					change_variable = { which = italy_home_dev value = 20 }
				}
				else_if = {
					limit = {
						has_province_modifier = dominant_center_of_production
						#is_capital = yes
					}
					change_variable = { which = italy_home_dev value = 30 }
				}
				if = {
					limit = {
						has_province_modifier = minor_center_of_art
						#is_capital = yes
					}
					change_variable = { which = italy_home_dev value = 5 }
				}
				else_if = {
					limit = {
						has_province_modifier = important_center_of_art
						#is_capital = yes
					}
					change_variable = { which = italy_home_dev value = 10 }
				}
				if = {
					limit = {
						has_building = small_university
					}
					change_variable = { which = italy_home_dev value = 3 }
				}
				else_if = {
					limit = {
						has_building = medium_university
					}
					change_variable = { which = italy_home_dev value = 6 }
				}
				else_if = {
					limit = {
						has_building = big_university
					}
					change_variable = { which = italy_home_dev value = 9 }
				}
				
				change_variable = { which = italy_home_dev which = italy_province_dev }
				change_variable = { which = italy_home_dev which = italy_province_urban }
				
				if = {
					limit = {
						NOT = { superregion = italy_superregion }
					}
					divide_variable = { which = italy_home_dev value = 3 }
				}
				
				owner = {
					change_variable = { which = italy_home_dev which = PREV }
					if = {
						limit = { is_subject_other_than_tributary_trigger = yes }
						divide_variable = { which = italy_home_dev  value = 2 }
						overlord = {
							change_variable = { which = italy_home_dev   which = PREV }
						}
					}
				}
			}
		}
		
		every_province = {
			limit = {
				owner = {
					capital_scope = {
						superregion = italy_superregion
					}
				}
			}
			change_variable = { which = italy_total_dev which = italy_home_dev }
			
			every_country = {
				limit = {
					capital_scope = {
						superregion = italy_superregion
					}
				}
				change_variable = { which = italy_total_dev which = PREV }
			}
		}
		
		every_country = {
			limit = {
				check_variable = { which = italian_nations value = 5 }
			}
			
			multiply_variable = { which = italy_home_dev value = 100 }
			if = {
				limit = {
					is_variable_equal = {
						which = italy_total_dev
						value = 0
					}
				}
				
				# log = "<ERROR><B88B3A10><THIS:[This.GetName]><PREV:[Prev.GetName]><ROOT:[Root.GetName]><FROM:[From.GetName]> Division by zero!"
				
			}
			else = {
				divide_variable = {
					which = italy_home_dev
					which = italy_total_dev
				}
			}
			if = {
				limit = {
					check_variable = { which = italy_home_dev value = 20 }
				}
				add_country_modifier = { name = "menacing_italian_power" duration = -1 }
			}
			else_if = {
				limit = {
					check_variable = { which = italy_home_dev value = 14 }
				}
				add_country_modifier = { name = "dominant_italian_power" duration = -1 }
			}
			else_if = {
				limit = {
					check_variable = { which = italy_home_dev value = 8 }
				}
				add_country_modifier = { name = "major_italian_power" duration = -1 }
			}
			else_if = {
				limit = {
					check_variable = { which = italy_home_dev value = 4 }
				}
				add_country_modifier = { name = "regional_italian_power" duration = -1 }
			}
			else_if = {
				limit = {
					check_variable = { which = italy_home_dev value = 1 }
				}
				add_country_modifier = { name = "local_italian_power" duration = -1 }
			}
			else_if = {
				limit = {
					check_variable = { which = italy_home_dev value = 0.001 }
				}
				add_country_modifier = { name = "insignificant_italian_power" duration = -1 }
			}
		}
	} #closes option
} #closes event1

#######################
# POWER STATUS CHANGE #
#######################

### Changing Power Status

country_event = {
	id = italian_power.2
	title = "italian_power.EVTNAME2"
	desc = "italian_power.EVTDESC2"
	picture = ITALIAN_POWER_eventPicture
	
	trigger = {
		has_country_flag = italian_power
		OR = {
			AND = {
				has_country_modifier = insignificant_italian_power
				NOT = { has_country_flag = insignificant_italian_power }
			}
			AND = {
				has_country_modifier = local_italian_power
				NOT = { has_country_flag = local_italian_power }
			}
			AND = {
				has_country_modifier = regional_italian_power
				NOT = { has_country_flag = regional_italian_power }
			}
			AND = {
				has_country_modifier = major_italian_power
				NOT = { has_country_flag = major_italian_power }
			}
			AND = {
				has_country_modifier = dominant_italian_power
				NOT = { has_country_flag = dominant_italian_power }
			}
			AND = {
				has_country_modifier = menacing_italian_power
				NOT = { has_country_flag = menacing_italian_power }
			}
		}
	}
	
	mean_time_to_happen = { months = 1 }
	
	#RISE
	
	option = {
		
		trigger = {
			has_country_flag = insignificant_italian_power
			has_country_modifier = local_italian_power
		}
		
		name = "italian_power.EVTOPTA2" #Rising from insignificant to local
		custom_tooltip = italian_power_local_tooltip
		add_prestige = 3
		set_country_flag = local_italian_power
		clr_country_flag = insignificant_italian_power
	}
	
	option = {
		
		trigger = {
			has_country_flag = local_italian_power
			has_country_modifier = regional_italian_power
		}
		
		name = "italian_power.EVTOPTA2" #Rising from local to regional
		custom_tooltip = italian_power_regional_tooltip
		add_prestige = 3
		set_country_flag = regional_italian_power
		clr_country_flag = local_italian_power
	}
	
	option = {
		
		trigger = {
			has_country_flag = regional_italian_power
			has_country_modifier = major_italian_power
		}
		
		name = "italian_power.EVTOPTB2" #Rising from regional to major
		custom_tooltip = italian_power_major_tooltip
		add_prestige = 5
		set_country_flag = major_italian_power
		clr_country_flag = regional_italian_power
	}
	
	option = {
		
		trigger = {
			has_country_flag = major_italian_power
			has_country_modifier = dominant_italian_power
		}
		
		name = "italian_power.EVTOPTC2" #Rising from major to dominant
		custom_tooltip = italian_power_dominant_tooltip
		add_prestige = 2
		set_country_flag = dominant_italian_power
		clr_country_flag = major_italian_power
	}
	
	option = {
		
		trigger = {
			has_country_flag = dominant_italian_power
			has_country_modifier = menacing_italian_power
		}
		
		name = "italian_power.EVTOPTD2" #Rising from dominant to menacing
		custom_tooltip = italian_power_menacing_tooltip
		add_prestige = 1
		set_country_flag = menacing_italian_power
		clr_country_flag = dominant_italian_power
	}
	
	#FALL
	
	option = {
		
		trigger = {
			has_country_flag = menacing_italian_power
			has_country_modifier = dominant_italian_power
		}
		
		name = "italian_power.EVTOPTE2" #Falling from menacing to dominant
		custom_tooltip = italian_power_dominant_tooltip
		add_prestige = -2
		set_country_flag = dominant_italian_power
		clr_country_flag = menacing_italian_power
	}
	
	option = {
		
		trigger = {
			has_country_flag = dominant_italian_power
			has_country_modifier = major_italian_power
		}
		
		name = "italian_power.EVTOPTF2" #Falling from dominant to major
		custom_tooltip = italian_power_major_tooltip
		add_prestige = -3
		set_country_flag = major_italian_power
		clr_country_flag = dominant_italian_power
	}
	
	option = {
		
		trigger = {
			has_country_flag = major_italian_power
			has_country_modifier = regional_italian_power
		}
		
		name = "italian_power.EVTOPTG2" #Falling from major to regional
		custom_tooltip = italian_power_regional_tooltip
		add_prestige = -5
		set_country_flag = regional_italian_power
		clr_country_flag = major_italian_power
	}
	
	option = {
		
		trigger = {
			has_country_flag = regional_italian_power
			has_country_modifier = local_italian_power
		}
		
		name = "italian_power.EVTOPTH2" #Falling from regional to local
		custom_tooltip = italian_power_local_tooltip
		add_prestige = -4
		set_country_flag = local_italian_power
		clr_country_flag = regional_italian_power
	}
	
	
	option = {
		
		trigger = {
			has_country_flag = local_italian_power
			has_country_modifier = insignificant_italian_power
		}
		
		name = "italian_power.EVTOPTH2" #Falling from regional to local
		custom_tooltip = italian_power_insignifican_tooltip
		add_prestige = -4
		set_country_flag = insignificant_italian_power
		clr_country_flag = local_italian_power
	}
	
	####Exceptional rise and fall - RISE#### Call me Cesar!
	
	option = {
		
		trigger = {
			has_country_flag = insignificant_italian_power
			has_country_modifier = regional_italian_power
		}
		
		name = "italian_power.EVTOPTI2" #Rising from local to major
		custom_tooltip = italian_power_regional_tooltip
		add_prestige = 10
		set_country_flag = regional_italian_power
		clr_country_flag = insignificant_italian_power
	}
	
	option = {
		
		trigger = {
			has_country_flag = insignificant_italian_power
			has_country_modifier = major_italian_power
		}
		
		name = "italian_power.EVTOPTI2" #Rising from local to major
		custom_tooltip = italian_power_major_tooltip
		add_prestige = 10
		set_country_flag = major_italian_power
		clr_country_flag = insignificant_italian_power
	}
	
	option = {
		
		trigger = {
			has_country_flag = insignificant_italian_power
			has_country_modifier = dominant_italian_power
		}
		
		name = "italian_power.EVTOPTI2" #Rising from local to dominant
		custom_tooltip = italian_power_dominant_tooltip
		add_prestige = 15
		set_country_flag = dominant_italian_power
		clr_country_flag = insignificant_italian_power
	}
	
	option = {
		
		trigger = {
			has_country_flag = insignificant_italian_power
			has_country_modifier = menacing_italian_power
		}
		
		name = "italian_power.EVTOPTI2" #Rising from local to menacing
		custom_tooltip = italian_power_menacing_tooltip
		add_prestige = 10
		set_country_flag = menacing_italian_power
		clr_country_flag = insignificant_italian_power
	}
	
	option = {
		
		trigger = {
			has_country_flag = local_italian_power
			has_country_modifier = major_italian_power
		}
		
		name = "italian_power.EVTOPTI2" #Rising from local to major
		custom_tooltip = italian_power_major_tooltip
		add_prestige = 10
		set_country_flag = major_italian_power
		clr_country_flag = local_italian_power
	}
	
	option = {
		
		trigger = {
			has_country_flag = local_italian_power
			has_country_modifier = dominant_italian_power
		}
		
		name = "italian_power.EVTOPTI2" #Rising from local to dominant
		custom_tooltip = italian_power_dominant_tooltip
		add_prestige = 5
		set_country_flag = dominant_italian_power
		clr_country_flag = local_italian_power
	}
	
	option = {
		
		trigger = {
			has_country_flag = local_italian_power
			has_country_modifier = menacing_italian_power
		}
		
		name = "italian_power.EVTOPTI2" #Rising from local to menacing
		custom_tooltip = italian_power_menacing_tooltip
		add_prestige = 20
		set_country_flag = menacing_italian_power
		clr_country_flag = local_italian_power
	}
	
	option = {
		
		trigger = {
			has_country_flag = regional_italian_power
			has_country_modifier = dominant_italian_power
		}
		
		name = "italian_power.EVTOPTI2" #Rising from regional to dominant
		custom_tooltip = italian_power_dominant_tooltip
		add_prestige = 10
		set_country_flag = dominant_italian_power
		clr_country_flag = regional_italian_power
	}
	
	option = {
		
		trigger = {
			has_country_flag = regional_italian_power
			has_country_modifier = menacing_italian_power
		}
		
		name = "italian_power.EVTOPTI2" #Rising from regional to menacing
		custom_tooltip = italian_power_menacing_tooltip
		add_prestige = 15
		set_country_flag = menacing_italian_power
		clr_country_flag = regional_italian_power
	}
	
	option = {
		
		trigger = {
			has_country_flag = major_italian_power
			has_country_modifier = menacing_italian_power
		}
		
		name = "italian_power.EVTOPTI2" #Rising from major to menacing
		custom_tooltip = italian_power_menacing_tooltip
		add_prestige = 10
		set_country_flag = menacing_italian_power
		clr_country_flag = major_italian_power
	}
	
	####Exceptional rise and fall - FALL#### ... aut nihil?
	
	option = {
		
		trigger = {
			has_country_flag = menacing_italian_power
			has_country_modifier = major_italian_power
		}
		
		name = "italian_power.EVTOPTJ2" #Falling from menacing to major
		custom_tooltip = italian_power_major_tooltip
		add_prestige = -10
		set_country_flag = major_italian_power
		clr_country_flag = menacing_italian_power
	}
	
	option = {
		
		trigger = {
			has_country_flag = menacing_italian_power
			has_country_modifier = regional_italian_power
		}
		
		name = "italian_power.EVTOPTJ2" #Falling from menacing to regional
		custom_tooltip = italian_power_regional_tooltip
		add_prestige = -15
		set_country_flag = regional_italian_power
		clr_country_flag = menacing_italian_power
	}
	
	option = {
		
		trigger = {
			has_country_flag = menacing_italian_power
			has_country_modifier = local_italian_power
		}
		
		name = "italian_power.EVTOPTJ2" #Falling from menacing to local
		custom_tooltip = italian_power_local_tooltip
		add_prestige = -20
		set_country_flag = local_italian_power
		clr_country_flag = menacing_italian_power
	}
	
	option = {
		
		trigger = {
			has_country_flag = menacing_italian_power
			has_country_modifier = insignificant_italian_power
		}
		
		name = "italian_power.EVTOPTJ2" #Falling from menacing to local
		custom_tooltip = italian_power_insignificant_tooltip
		add_prestige = -20
		set_country_flag = insignificant_italian_power
		clr_country_flag = menacing_italian_power
	}
	
	option = {
		
		trigger = {
			has_country_flag = dominant_italian_power
			has_country_modifier = regional_italian_power
		}
		
		name = "italian_power.EVTOPTJ2" #Falling from dominant to regional
		custom_tooltip = italian_power_regional_tooltip
		add_prestige = -10
		set_country_flag = regional_italian_power
		clr_country_flag = dominant_italian_power
	}
	
	option = {
		
		trigger = {
			has_country_flag = dominant_italian_power
			has_country_modifier = local_italian_power
		}
		
		name = "italian_power.EVTOPTJ2" #Falling from dominant to local
		custom_tooltip = italian_power_local_tooltip
		add_prestige = -15
		set_country_flag = local_italian_power
		clr_country_flag = dominant_italian_power
	}
	
	option = {
		
		trigger = {
			has_country_flag = dominant_italian_power
			has_country_modifier = insignificant_italian_power
		}
		
		name = "italian_power.EVTOPTJ2" #Falling from dominant to local
		custom_tooltip = italian_power_insignificant_tooltip
		add_prestige = -20
		set_country_flag = insignificant_italian_power
		clr_country_flag = dominant_italian_power
	}
	
	option = {
		
		trigger = {
			has_country_flag = major_italian_power
			has_country_modifier = local_italian_power
		}
		
		name = "italian_power.EVTOPTJ2" #Falling from major to local
		custom_tooltip = italian_power_local_tooltip
		add_prestige = -10
		set_country_flag = local_italian_power
		clr_country_flag = major_italian_power
	}
	
	option = {
		
		trigger = {
			has_country_flag = menacing_italian_power
			has_country_modifier = local_italian_power
		}
		
		name = "italian_power.EVTOPTJ2" #Falling from menacing to local
		custom_tooltip = italian_power_local_tooltip
		add_prestige = -20
		set_country_flag = local_italian_power
		clr_country_flag = menacing_italian_power
	}
	
	option = {
		
		trigger = {
			has_country_flag = dominant_italian_power
			has_country_modifier = regional_italian_power
		}
		
		name = "italian_power.EVTOPTJ2" #Falling from dominant to regional
		custom_tooltip = italian_power_regional_tooltip
		add_prestige = -10
		set_country_flag = regional_italian_power
		clr_country_flag = dominant_italian_power
	}
	
	option = {
		
		trigger = {
			has_country_flag = dominant_italian_power
			has_country_modifier = local_italian_power
		}
		
		name = "italian_power.EVTOPTJ2" #Falling from dominant to local
		custom_tooltip = italian_power_local_tooltip
		add_prestige = -15
		set_country_flag = local_italian_power
		clr_country_flag = dominant_italian_power
	}
	
	option = {
		trigger = {
			has_country_flag = major_italian_power
			has_country_modifier = local_italian_power
		}
		
		name = "italian_power.EVTOPTJ2" #Falling from major to local
		custom_tooltip = italian_power_local_tooltip
		add_prestige = -10
		set_country_flag = local_italian_power
		clr_country_flag = major_italian_power
	}
	
	option = {
		trigger = {
			has_country_flag = major_italian_power
			has_country_modifier = insignificant_italian_power
		}
		
		name = "italian_power.EVTOPTJ2" #Falling from major to local
		custom_tooltip = italian_power_insignificant_tooltip
		add_prestige = -10
		set_country_flag = insignificant_italian_power
		clr_country_flag = major_italian_power
	}
	
	option = {
		trigger = {
			has_country_flag = regional_italian_power
			has_country_modifier = insignificant_italian_power
		}
		
		name = "italian_power.EVTOPTJ2" #Falling from major to local
		custom_tooltip = italian_power_insignificant_tooltip
		add_prestige = -10
		set_country_flag = insignificant_italian_power
		clr_country_flag = regional_italian_power
	}
}

###New Italian power (also welcome message)

country_event = {
	id = italian_power.3
	title = "italian_power.EVTNAME1"
	desc = "italian_power.EVTDESC1"
	picture = ITALIAN_POWER_eventPicture
	
	trigger = {
		NOT = { has_country_flag = italian_power }
		OR = {
			has_country_modifier = insignificant_italian_power
			has_country_modifier = local_italian_power
			has_country_modifier = regional_italian_power
			has_country_modifier = major_italian_power
			has_country_modifier = dominant_italian_power
			has_country_modifier = menacing_italian_power
		}
	}
	
	mean_time_to_happen = { months = 1 }
	
	option = {
		
		trigger = {
			has_country_modifier = insignificant_italian_power
		}
		
		name = "italian_power.EVTOPTA3" #Not titles make men illustrious, but men make titles illustrious.
		custom_tooltip = italian_power_insignificant_tooltip
		add_prestige = 1
		set_country_flag = insignificant_italian_power
		set_country_flag = italian_power
	}
	
	option = {
		
		trigger = {
			has_country_modifier = local_italian_power
		}
		
		name = "italian_power.EVTOPTA3" #Not titles make men illustrious, but men make titles illustrious.
		custom_tooltip = italian_power_local_tooltip
		add_prestige = 1
		set_country_flag = local_italian_power
		set_country_flag = italian_power
	}
	
	option = {
		
		trigger = {
			has_country_modifier = regional_italian_power
		}
		
		name = "italian_power.EVTOPTA2" #Every one sees what you appear to be, few really know what you are.
		custom_tooltip = italian_power_regional_tooltip
		add_prestige = 2
		set_country_flag = regional_italian_power
		set_country_flag = italian_power
	}
	
	option = {
		
		trigger = {
			has_country_modifier = major_italian_power
		}
		
		name = "italian_power.EVTOPTB2" #One must be a fox to recognize traps, and a lion to frighten wolves.
		custom_tooltip = italian_power_major_tooltip
		add_prestige = 3
		set_country_flag = major_italian_power
		set_country_flag = italian_power
	}
	
	option = {
		
		trigger = {
			has_country_modifier = dominant_italian_power
		}
		
		name = "italian_power.EVTOPTC2" #It is far safer to be feared than loved.
		custom_tooltip = italian_power_dominant_tooltip
		add_prestige = 4
		set_country_flag = dominant_italian_power
		set_country_flag = italian_power
	}
	
	option = {
		
		trigger = {
			has_country_modifier = menacing_italian_power
		}
		
		name = "italian_power.EVTOPTD2" #Armed prophets have been victorious, unarmed prophets have been destroyed.
		custom_tooltip = italian_power_menacing_tooltip
		add_prestige = 5
		set_country_flag = menacing_italian_power
		set_country_flag = italian_power
	}
}

###Not an Italian power anymore

country_event = {
	id = italian_power.4
	title = "italian_power.EVTNAME4"
	desc = "italian_power.EVTDESC4"
	picture = ITALIAN_POWER_eventPicture
	
	trigger = {
		has_country_flag = italian_power
		NOT = { has_country_modifier = insignificant_italian_power }
		NOT = { has_country_modifier = local_italian_power }
		NOT = { has_country_modifier = regional_italian_power }
		NOT = { has_country_modifier = major_italian_power }
		NOT = { has_country_modifier = dominant_italian_power }
		NOT = { has_country_modifier = menacing_italian_power }
	}
	
	immediate = { clr_country_flag = italian_power }
	
	mean_time_to_happen = { months = 1 }
	
	option = {
		
		name = "italian_power.EVTOPTA4" #Va pensiero...
		add_prestige = -5
		clr_country_flag = insignificant_italian_power
		clr_country_flag = local_italian_power
		clr_country_flag = regional_italian_power
		clr_country_flag = major_italian_power
		clr_country_flag = dominant_italian_power
		clr_country_flag = menacing_italian_power
	}
}

###Italian power founded

country_event = {
	id = italian_power.5
	title = "italian_power.EVTNAME5"
	desc = "italian_power.EVTDESC5"
	picture = ITALIAN_POWER_eventPicture
	
	trigger = {
		has_country_flag = italian_power
		OR = {
			exists = ITA
			exists = ITC
			exists = ITD
			exists = ITE
			PAP = { has_country_modifier = kingdom_of_god }
			tag = ERG
		}
	}
	
	immediate = { clr_country_flag = italian_power }
	
	mean_time_to_happen = { months = 1 }
	
	option = {
		
		name = "italian_power.EVTOPTA5" #Italian politics have changed dramatically
		clr_country_flag = insignificant_italian_power
		clr_country_flag = local_italian_power
		clr_country_flag = regional_italian_power
		clr_country_flag = major_italian_power
		clr_country_flag = dominant_italian_power
		clr_country_flag = menacing_italian_power
		remove_country_modifier = insignificant_italian_power
		remove_country_modifier = local_italian_power
		remove_country_modifier = regional_italian_power
		remove_country_modifier = major_italian_power
		remove_country_modifier = dominant_italian_power
		remove_country_modifier = menacing_italian_power
	}
}

#The Shadow Kingdom - ITALY
country_event = {
	id = hre_event.1
	title = "hre_event.1.t"
	desc = "hre_event.1.d"
	picture = HRE_eventPicture

	trigger = {
		NOT = { has_global_flag = italy_out_of_HRE }
		NOT = { has_global_flag = 1530_start_date }
		normal_or_historical_nations = yes
		is_year = 1490
		NOT = { is_year = 1550 }
		NOT = { emperor = { culture_group = latin } }
		NOT = { emperor = { culture_group = napolitan } }
		OR = {
			capital_scope = { kingdom_italy_region_trigger = yes }
			tag = SAV
		}
		#Adding these areas entirely into the Empire prevents this event.
		OR = {
			# East Italy Region
			emilia_romagna_area = {
				is_part_of_hre = no
			}
			marche_area = {
				is_part_of_hre = no
			}
			# Non - Venice HRE area
			108 = {
				is_part_of_hre = no
			}
			3382 = {
				is_part_of_hre = no
			}
			1348 = {
				is_part_of_hre = no
			}
			1858 = {
				is_part_of_hre = no
			}
			111 = {
				is_part_of_hre = no
			}
			# West Italy Region
			lombardy_area = {
				is_part_of_hre = no
			}
			piedmont_area = {
				is_part_of_hre = no
			}
			padan_area = {
				is_part_of_hre = no
			}
			# Non - Genoa HRE area
			102 = {
				is_part_of_hre = no
			}
			2564 = {
				is_part_of_hre = no
			}
			# Central Italy Region
			tuscany_area = {
				is_part_of_hre = no
			}
			siena_area = {
				is_part_of_hre = no
			}
			lazio_area = {
				is_part_of_hre = no
			}
			#Corsica
			1247 = {
				is_part_of_hre = no
			}
			2851 = {
				is_part_of_hre = no
			}
		}
		is_part_of_hre = yes
		NOT = {	#Won't happen unless atleast one Italian HRE state isn't a vassal of a German HRE state.
			any_country = {
				overlord_of = ROOT
				is_part_of_hre = yes
				OR = {
					culture_group = low_germanic
					culture_group = high_germanic
					is_emperor = yes
				}
			}
		}
	}
	
	mean_time_to_happen = {
		months = 12
	}

	immediate = {
		hidden_effect = {
			set_global_flag = italy_out_of_HRE
			set_country_flag = shadow_kingdom #To keep track of info events
			every_country = {
				limit = {
					is_part_of_hre = yes
					OR = {
						culture_group = latin
						culture_group = napolitan
						capital_scope = {
							kingdom_italy_region_trigger = yes
						}
					}
					NOT = { has_country_flag = shadow_kingdom }
				}
				country_event = { id = hre_event.2 }
				set_country_flag = shadow_kingdom #To keep track of info events
			}
			every_country = {
				limit = {
					OR = {
						culture_group = latin
						culture_group = napolitan
						capital_scope = {
							kingdom_italy_region_trigger = yes
						}
					}
					is_part_of_hre = no
					any_owned_province = {
						is_part_of_hre = yes
					}
				}
				country_event = { id = hre_event.3 } #Clears Italian provinces for countries not in the HRE
				# Keep an eye on this, triggering country events instantly in immediate can cause loops
			}
		}
	}

	option = {			# 
		name = "hre_event.1.a"
		ai_chance = { factor = 1 }
		set_country_flag = left_the_empire #To keep track of opinions
		set_in_empire = no
		every_country = {
			limit = {
				ai = no
				overlord_of = ROOT
				NOT = { has_country_flag = shadow_kingdom }
				NOT = { has_country_flag = had_shadow_kingdom_info }
			}
			country_event = { id = hre_event.3 } #Info Event
		}
		every_neighbor_country = {
			limit = {
				ai = no
				NOT = { overlord_of = ROOT }
				NOT = { has_country_flag = shadow_kingdom }
				NOT = { has_country_flag = had_shadow_kingdom_info }
			}
			country_event = { id = hre_event.3 } #Info Event
		}
		if = {
			limit = {
				is_elector = yes
			}
			elector = no
		}
		emperor = {
			add_opinion = { who = ROOT modifier = slipped_out_of_empire }
		}
		add_opinion = { who = emperor modifier = slipped_out_of_empire }
		add_prestige = 35
	}
	option = {			#Our country is a natural part of the Empire
		name = "hre_event.1.b"
		ai_chance = {
			factor = 0
			modifier = {
				factor = 100
				tag = SAV
			}
		}
		custom_tooltip = PENALTY_SHADOW_KINGDOM
		add_opinion = {
			who = emperor
			modifier = stayed_in_the_empire
		}
		emperor = {
			add_imperial_influence = 5
			add_opinion = {
				who = ROOT
				modifier = stayed_in_the_empire
			}
		}
		if = {
			limit = { NOT = { tag = SAV } }
			add_prestige = -35
			every_country = {
				limit = {
					has_country_flag = left_the_empire
				}
				add_opinion = {
					who = ROOT
					modifier = stayed_in_the_empire_hostile
				}
			}
		}
	}
}

#Shadow Kingdom - Other tags
country_event = {
	id = hre_event.2
	title = "hre_event.1.t"
	desc = "hre_event.1.d"
	picture = HRE_eventPicture

	is_triggered_only = yes

	option = { # The Empire does not concern us.
		name = "hre_event.1.a"
		ai_chance = {
			factor = 50
			modifier = {
				factor = 0
				emperor = {
					overlord_of = ROOT
				}
			}
		}
		set_country_flag = left_the_empire #To keep track of opinions
		set_in_empire = no
		every_country = {
			limit = {
				ai = no
				overlord_of = ROOT
				NOT = { has_country_flag = shadow_kingdom }
				NOT = { has_country_flag = had_shadow_kingdom_info }
			}
			country_event = { id = hre_event.3 } #Info Event
		}
		every_neighbor_country = {
			limit = {
				ai = no
				NOT = { overlord_of = ROOT }
				NOT = { has_country_flag = shadow_kingdom }
				NOT = { has_country_flag = had_shadow_kingdom_info }
			}
			country_event = { id = hre_event.3 } #Info Event
		}
		if = {
			limit = {
				is_elector = yes
			}
			elector = no
		}
		add_prestige = 35
		emperor = {
			add_opinion = { who = ROOT modifier = slipped_out_of_empire }
		}
		add_opinion = { who = emperor modifier = slipped_out_of_empire }
	}
	option = {			#Our country is a natural part of the Empire
		name = "hre_event.1.b"
		ai_chance = {
			factor = 50
			modifier = {
				factor = 0
				emperor = {
					NOT = { overlord_of = ROOT }
				}
			}
		}
		add_prestige = -35
		add_opinion = {
			who = emperor
			modifier = stayed_in_the_empire
		}
		emperor = {
			add_imperial_influence = 5
			add_opinion = {
				who = ROOT
				modifier = stayed_in_the_empire
			}
		}
		every_country = {
			limit = {
				has_country_flag = left_the_empire
			}
			add_opinion = {
				who = ROOT
				modifier = stayed_in_the_empire_hostile
			}
		}
	}
}

#The Shadow Kingdom
country_event = {
	id = hre_event.3
	title = "hre_event.3.t"
	desc = "hre_event.3.d"
	picture = HRE_eventPicture
	
	is_triggered_only = yes
	
	immediate = {
		hidden_effect = {
			set_country_flag = had_shadow_kingdom_info
		}
	}
	
	option = {	#Other Italian territory in HRE also broken off unless overlord is a member.
		name = "hre_event.3.a" #Ok.
		trigger = {
			OR = {
				culture_group = latin
				culture_group = napolitan
				capital_scope = {
					kingdom_italy_region_trigger = yes
				}
			}
			is_part_of_hre = no
		}
		every_owned_province = {
			limit = {
				is_part_of_hre = yes
				kingdom_italy_region_trigger = yes
			}
			set_in_empire = no
		}
	}
	option = {
		name = "hre_event.3.b" #So they cannot count on his protection?
		trigger = {
			NOT = {
				culture_group = latin
				culture_group = napolitan
				capital_scope = {
					kingdom_italy_region_trigger = yes
				}
			}
			is_part_of_hre = no
		}
	}
	option = {
		name = "hre_event.3.c" #Ok.
		trigger = {
			NOT = {
				culture_group = latin
				culture_group = napolitan
				capital_scope = {
					kingdom_italy_region_trigger = yes
				}
			}
			is_part_of_hre = yes
		}
	}
}

#Warning that Italy might slip away.
country_event = {
	id = hre_event.4
	title = "hre_event.4.t"
	desc = "hre_event.4.d"
	picture = HRE_eventPicture

	trigger = {
		OR = {
			is_emperor = yes
			ai = no
		} # Fire for AI emperor to set the global flag for possible future player emperor
		NOT = { has_global_flag = italy_out_of_HRE }
		normal_or_historical_nations = yes
		is_year = 1440
		NOT = { is_year = 1550 }
		OR = {
			is_part_of_hre = yes
			is_emperor = yes
		}
		NOT = { has_country_flag = italian_warning }
	}
	
	immediate = {
		hidden_effect = {
			set_country_flag = italian_warning
			every_country = {
				limit = {
					ai = no
					is_part_of_hre = yes
					NOT = { has_country_flag = italian_warning }
				}
				country_event = { id = hre_event.4 }
				set_country_flag = italian_warning
			}
			set_global_flag = enable_stop_shadow_kingdom
		}
	}
	
	mean_time_to_happen = {
		months = 6
	}

	option = {			# 
		name = "hre_event.4.a"
		trigger = {
			NOT = { culture_group = latin }
			NOT = { culture_group = napolitan }
		}
		custom_tooltip = hre_event.4.a.tt
	}
	option = {			# 
		name = "hre_event.4.b"
		trigger = {
			OR = {
				culture_group = latin
				culture_group = napolitan
			}
		}
		custom_tooltip = hre_event.4.b.tt
	}
}

#Germany/Italy Formed - Leaving Empire
country_event = {
	id = hre_event.5
	title = "hre_event.5.t"
	desc = "hre_event.5.d"
	picture = HRE_eventPicture
	
	is_triggered_only = yes
	
	option = {
		name = "hre_event.5.a" #Ok.
		add_imperial_influence = -75
		add_prestige = -10
		tooltip = {
			add_opinion = {
				who = FROM
				modifier = opinion_left_empire
			}
		}
	}
}

#The Shadow Duchy - PROVENCE
country_event = {
	id = hre_event.6
	title = "hre_event.6.t"
	desc = "hre_event.6.d"
	picture = HRE_eventPicture

	trigger = {
		NOT = { has_global_flag = provence_out_of_HRE }
		normal_or_historical_nations = yes
		is_year = 1390
		NOT = { is_year = 1550 }
		NOT = { emperor = { culture_group = langue_d_oc } }
		capital_scope = {
			region = provence_region
			NOT = { owned_by = SAV }
			NOT = { owned_by = PAP }
			NOT = { owned_by = AVI }
		}
		#Adding these areas entirely into the Empire prevents this event.
		provence_region = {
			NOT = { owned_by = SAV }
			is_part_of_hre = no
		}
		is_part_of_hre = yes
		NOT = {	#Won't happen unless atleast one Provencial HRE state isn't a vassal of a German HRE state.
			any_country = {
				overlord_of = ROOT
				is_part_of_hre = yes
				OR = {
					culture_group = low_germanic
					culture_group = high_germanic
					is_emperor = yes
				}
			}
		}
	}
	
	mean_time_to_happen = {
		months = 12
	}

	immediate = {
		hidden_effect = {
			set_global_flag = provence_out_of_HRE
			set_country_flag = shadow_duchy #To keep track of info events
			every_country = {
				limit = {
					is_part_of_hre = yes
					NOT = { tag = SAV }
					OR = {
						culture_group = langue_d_oc
						capital_scope = {
							region = provence_region
						}
					}
					NOT = { has_country_flag = shadow_duchy }
				}
				country_event = { id = hre_event.7 }
				set_country_flag = shadow_duchy #To keep track of info events
			}
			every_country = {
				limit = {
					OR = {
						culture_group = langue_d_oc
						capital_scope = {
							region = provence_region
						}
					}
					NOT = { tag = SAV }
					is_part_of_hre = no
					any_owned_province = {
						is_part_of_hre = yes
					}
				}
				country_event = { id = hre_event.8 } #Clears Provencial provinces for countries not in the HRE
				# Keep an eye on this, triggering country events instantly in immediate can cause loops
			}
		}
	}

	option = {			# 
		name = "hre_event.6.a"
		ai_chance = { factor = 1 }
		set_country_flag = left_the_empire #To keep track of opinions
		set_in_empire = no
		every_country = {
			limit = {
				ai = no
				overlord_of = ROOT
				NOT = { has_country_flag = shadow_duchy }
				NOT = { has_country_flag = had_shadow_duchy_info }
			}
			country_event = { id = hre_event.8 } #Info Event
		}
		every_neighbor_country = {
			limit = {
				ai = no
				NOT = { overlord_of = ROOT }
				NOT = { has_country_flag = shadow_duchy }
				NOT = { has_country_flag = had_shadow_duchy_info }
			}
			country_event = { id = hre_event.8 } #Info Event
		}
		if = {
			limit = {
				is_elector = yes
			}
			elector = no
		}
		emperor = {
			add_opinion = { who = ROOT modifier = slipped_out_of_empire }
		}
		add_opinion = { who = emperor modifier = slipped_out_of_empire }
		add_prestige = 35
	}
	option = {			#Our country is a natural part of the Empire
		name = "hre_event.6.b"
		ai_chance = {
			factor = 0
			modifier = {
				factor = 100
				tag = SAV
			}
		}
		custom_tooltip = PENALTY_SHADOW_KINGDOM
		add_opinion = {
			who = emperor
			modifier = stayed_in_the_empire
		}
		emperor = {
			add_imperial_influence = 5
			add_opinion = {
				who = ROOT
				modifier = stayed_in_the_empire
			}
		}
		if = {
			limit = { NOT = { tag = SAV } }
			add_prestige = -35
			every_country = {
				limit = {
					has_country_flag = left_the_empire
				}
				add_opinion = {
					who = ROOT
					modifier = stayed_in_the_empire_hostile
				}
			}
		}
	}
}

#Shadow Duchy - Other tags
country_event = {
	id = hre_event.7
	title = "hre_event.6.t"
	desc = "hre_event.6.d"
	picture = HRE_eventPicture

	is_triggered_only = yes

	option = { # The Empire does not concern us.
		name = "hre_event.6.a"
		ai_chance = {
			factor = 50
			modifier = {
				factor = 0
				emperor = {
					overlord_of = ROOT
				}
			}
		}
		set_country_flag = left_the_empire #To keep track of opinions
		set_in_empire = no
		every_country = {
			limit = {
				ai = no
				overlord_of = ROOT
				NOT = { has_country_flag = shadow_duchy }
				NOT = { has_country_flag = had_shadow_duchy_info }
			}
			country_event = { id = hre_event.8 } #Info Event
		}
		every_neighbor_country = {
			limit = {
				ai = no
				NOT = { overlord_of = ROOT }
				NOT = { has_country_flag = shadow_duchy }
				NOT = { has_country_flag = had_shadow_duchy_info }
			}
			country_event = { id = hre_event.8 } #Info Event
		}
		if = {
			limit = {
				is_elector = yes
			}
			elector = no
		}
		add_prestige = 35
		emperor = {
			add_opinion = { who = ROOT modifier = slipped_out_of_empire }
		}
		add_opinion = { who = emperor modifier = slipped_out_of_empire }
	}
	option = {			#Our country is a natural part of the Empire
		name = "hre_event.6.b"
		ai_chance = {
			factor = 50
			modifier = {
				factor = 0
				emperor = {
					NOT = { overlord_of = ROOT }
				}
			}
		}
		add_prestige = -35
		add_opinion = {
			who = emperor
			modifier = stayed_in_the_empire
		}
		emperor = {
			add_imperial_influence = 5
			add_opinion = {
				who = ROOT
				modifier = stayed_in_the_empire
			}
		}
		every_country = {
			limit = {
				has_country_flag = left_the_empire
			}
			add_opinion = {
				who = ROOT
				modifier = stayed_in_the_empire_hostile
			}
		}
	}
}

#The Shadow Duchy
country_event = {
	id = hre_event.8
	title = "hre_event.8.t"
	desc = "hre_event.8.d"
	picture = HRE_eventPicture
	
	is_triggered_only = yes
	
	immediate = {
		hidden_effect = {
			set_country_flag = had_shadow_duchy_info
		}
	}
	
	option = {	#Other Provencial territory in HRE also broken off unless overlord is a member.
		name = "hre_event.8.a" #Ok.
		trigger = {
			OR = {
				primary_culture = provencal
				capital_scope = {
					region = provence_region
					NOT = { owned_by = SAV }
				}
			}
			is_part_of_hre = no
		}
		every_owned_province = {
			limit = {
				is_part_of_hre = yes
				region = provence_region
				NOT = { owned_by = SAV }
			}
			set_in_empire = no
		}
	}
	option = {
		name = "hre_event.8.b" #So they cannot count on his protection?
		trigger = {
			NOT = {
				primary_culture = provencal
				capital_scope = {
					region = provence_region
					NOT = { owned_by = SAV }
				}
			}
			is_part_of_hre = no
		}
	}
	option = {
		name = "hre_event.8.c" #Ok.
		trigger = {
			NOT = {
				primary_culture = provencal
				capital_scope = {
					region = provence_region
					NOT = { owned_by = SAV }
				}
			}
			is_part_of_hre = yes
		}
	}
}

#Warning that Provence might slip away.
country_event = {
	id = hre_event.9
	title = "hre_event.9.t"
	desc = "hre_event.9.d"
	picture = HRE_eventPicture

	trigger = {
		OR = {
			is_emperor = yes
			ai = no
		} # Fire for AI emperor to set the global flag for possible future player emperor
		NOT = { has_global_flag = provence_out_of_HRE }
		normal_or_historical_nations = yes
		is_year = 1440
		NOT = { is_year = 1550 }
		OR = {
			is_part_of_hre = yes
			is_emperor = yes
		}
		NOT = { has_country_flag = provencal_warning }
	}
	
	immediate = {
		hidden_effect = {
			set_country_flag = provencal_warning
			every_country = {
				limit = {
					ai = no
					is_part_of_hre = yes
					NOT = { has_country_flag = provencal_warning }
				}
				country_event = { id = hre_event.9 }
				set_country_flag = provencal_warning
			}
			set_global_flag = enable_stop_shadow_duchy
		}
	}
	
	mean_time_to_happen = {
		months = 6
	}

	option = {			# 
		name = "hre_event.9.a"
		trigger = { NOT = { primary_culture = provencal } }
		custom_tooltip = hre_event.9.a.tt
	}
	option = {			# 
		name = "hre_event.9.b"
		trigger = { primary_culture = provencal }
		custom_tooltip = hre_event.9.b.tt
	}
}

#Unlawful territory in ITALY
province_event = {
	id = italian_power.6
	title = "italian_power.EVTNAME6"
	desc = "italian_power.EVTDESC6"
	picture = ITALIAN_POWER_eventPicture
	
	trigger = {
		NOT = { exists = ITA }
		NOT = { exists = ITC }
		NOT = { exists = ITD }
		NOT = { exists = ITE }
		NOT = {
			PAP = { has_country_modifier = kingdom_of_god }
		}
		owner = {
			OR = {
				has_country_modifier = dominant_italian_power
				has_country_modifier = menacing_italian_power
			}
		}
		NOT = { is_core = owner }
		NOT = {
			has_province_modifier = unlawful_territory
		}
		superregion = italy_superregion
	}
	
	mean_time_to_happen = { months = 1 }
	
	option = {
		name = "italian_power.EVTOPTA6"
		add_province_modifier = {
			name = "unlawful_territory"
			duration = 7300
		}
		if = {
			limit = {
				owner = {
					OR = {
						has_country_modifier = dominant_italian_power
						has_country_modifier = menacing_italian_power
					}
				}
			}
			every_country = {
				limit = {
					OR = {
						check_variable = { which = "Demesne_in_Italy" value = 1 }
						is_neighbor_of = ROOT
					}
					capital_scope = {
						continent = europe
					}
				}
				add_opinion = {
					who = ROOT
					modifier = opinion_unlawful_territory
				}
			}
		}
	}
}
