175 = "Autxerri Behera"
176 = "Akitania"
178 = "Biarnoa"
188 = "Hiru Gotzain-hiri"
209 = "Errioxa"
210 = "Nafarroa"
211 = "Aragoi Goikoa"
213 = "Bartzelona"
215 = "Gaztela"
217 = "Gaztela Berria"
219 = "Mantxa"
220 = "Valentzia"
221 = "Murtzia"
222 = "Almeria"
223 = "Granada"
225 = "Kordoba"
226 = "Malaga"
236 = "Londres"
295 = "Mosku"
367 = "Aztore Huarteak"
1381 = "Labrit"
1409 = "Kantabria"
2530 = "Erroma"
