# This scripted effect will take the name of the scripted effect as an argument
# Which will in turn enter the value of the region id as its own argument
region_effect = {
		if = {
		limit = {
			check_variable = { which = region_id value = 90 }
		}
		if = {
			limit = {
				check_variable = { which = region_id value = 135 }
			}
			if = {
				limit = {
					check_variable = { which = region_id value = 157 }
				}
				if = {
					limit = {
						check_variable = { which = region_id value = 168 }
					}
					if = {
						limit = {
							check_variable = { which = region_id value = 174 }
						}
						if = {
							limit = {
								check_variable = { which = region_id value = 177 }
							}
							if = {
								limit = {
									check_variable = { which = region_id value = 178 }
								}
								if = {
									limit = {
										check_variable = { which = region_id value = 179 }
									}
									$effect$ = { id = 179 }
								}
								else = {
									$effect$ = { id = 178 }
								}
							}
							else = {
								$effect$ = { id = 177 }
							}
						}
						else = {
							if = {
								limit = {
									check_variable = { which = region_id value = 175 }
								}
								if = {
									limit = {
										check_variable = { which = region_id value = 176 }
									}
									$effect$ = { id = 176 }
								}
								else = {
									$effect$ = { id = 175 }
								}
							}
							else = {
								$effect$ = { id = 174 }
							}
						}
					}
					else = {
						if = {
							limit = {
								check_variable = { which = region_id value = 171 }
							}
							if = {
								limit = {
									check_variable = { which = region_id value = 172 }
								}
								if = {
									limit = {
										check_variable = { which = region_id value = 173 }
									}
									$effect$ = { id = 173 }
								}
								else = {
									$effect$ = { id = 172 }
								}
							}
							else = {
								$effect$ = { id = 171 }
							}
						}
						else = {
							if = {
								limit = {
									check_variable = { which = region_id value = 169 }
								}
								if = {
									limit = {
										check_variable = { which = region_id value = 170 }
									}
									$effect$ = { id = 170 }
								}
								else = {
									$effect$ = { id = 169 }
								}
							}
							else = {
								$effect$ = { id = 168 }
							}
						}
					}
				}
				else = {
					if = {
						limit = {
							check_variable = { which = region_id value = 162 }
						}
						if = {
							limit = {
								check_variable = { which = region_id value = 165 }
							}
							if = {
								limit = {
									check_variable = { which = region_id value = 166 }
								}
								if = {
									limit = {
										check_variable = { which = region_id value = 167 }
									}
									$effect$ = { id = 167 }
								}
								else = {
									$effect$ = { id = 166 }
								}
							}
							else = {
								$effect$ = { id = 165 }
							}
						}
						else = {
							if = {
								limit = {
									check_variable = { which = region_id value = 163 }
								}
								if = {
									limit = {
										check_variable = { which = region_id value = 164 }
									}
									$effect$ = { id = 164 }
								}
								else = {
									$effect$ = { id = 163 }
								}
							}
							else = {
								$effect$ = { id = 162 }
							}
						}
					}
					else = {
						if = {
							limit = {
								check_variable = { which = region_id value = 159 }
							}
							if = {
								limit = {
									check_variable = { which = region_id value = 160 }
								}
								if = {
									limit = {
										check_variable = { which = region_id value = 161 }
									}
									$effect$ = { id = 161 }
								}
								else = {
									$effect$ = { id = 160 }
								}
							}
							else = {
								$effect$ = { id = 159 }
							}
						}
						else = {
							if = {
								limit = {
									check_variable = { which = region_id value = 158 }
								}
								$effect$ = { id = 158 }
							}
							else = {
								$effect$ = { id = 157 }
							}
						}
					}
				}
			}
			else = {
				if = {
					limit = {
						check_variable = { which = region_id value = 146 }
					}
					if = {
						limit = {
							check_variable = { which = region_id value = 151 }
						}
						if = {
							limit = {
								check_variable = { which = region_id value = 154 }
							}
							if = {
								limit = {
									check_variable = { which = region_id value = 155 }
								}
								if = {
									limit = {
										check_variable = { which = region_id value = 156 }
									}
									$effect$ = { id = 156 }
								}
								else = {
									$effect$ = { id = 155 }
								}
							}
							else = {
								$effect$ = { id = 154 }
							}
						}
						else = {
							if = {
								limit = {
									check_variable = { which = region_id value = 152 }
								}
								if = {
									limit = {
										check_variable = { which = region_id value = 153 }
									}
									$effect$ = { id = 153 }
								}
								else = {
									$effect$ = { id = 152 }
								}
							}
							else = {
								$effect$ = { id = 151 }
							}
						}
					}
					else = {
						if = {
							limit = {
								check_variable = { which = region_id value = 148 }
							}
							if = {
								limit = {
									check_variable = { which = region_id value = 149 }
								}
								if = {
									limit = {
										check_variable = { which = region_id value = 150 }
									}
									$effect$ = { id = 150 }
								}
								else = {
									$effect$ = { id = 149 }
								}
							}
							else = {
								$effect$ = { id = 148 }
							}
						}
						else = {
							if = {
								limit = {
									check_variable = { which = region_id value = 147 }
								}
								$effect$ = { id = 147 }
							}
							else = {
								$effect$ = { id = 146 }
							}
						}
					}
				}
				else = {
					if = {
						limit = {
							check_variable = { which = region_id value = 140 }
						}
						if = {
							limit = {
								check_variable = { which = region_id value = 143 }
							}
							if = {
								limit = {
									check_variable = { which = region_id value = 144 }
								}
								if = {
									limit = {
										check_variable = { which = region_id value = 145 }
									}
									$effect$ = { id = 145 }
								}
								else = {
									$effect$ = { id = 144 }
								}
							}
							else = {
								$effect$ = { id = 143 }
							}
						}
						else = {
							if = {
								limit = {
									check_variable = { which = region_id value = 141 }
								}
								if = {
									limit = {
										check_variable = { which = region_id value = 142 }
									}
									$effect$ = { id = 142 }
								}
								else = {
									$effect$ = { id = 141 }
								}
							}
							else = {
								$effect$ = { id = 140 }
							}
						}
					}
					else = {
						if = {
							limit = {
								check_variable = { which = region_id value = 137 }
							}
							if = {
								limit = {
									check_variable = { which = region_id value = 138 }
								}
								if = {
									limit = {
										check_variable = { which = region_id value = 139 }
									}
									$effect$ = { id = 139 }
								}
								else = {
									$effect$ = { id = 138 }
								}
							}
							else = {
								$effect$ = { id = 137 }
							}
						}
						else = {
							if = {
								limit = {
									check_variable = { which = region_id value = 136 }
								}
								$effect$ = { id = 136 }
							}
							else = {
								$effect$ = { id = 135 }
							}
						}
					}
				}
			}
		}
		else = {
			if = {
				limit = {
					check_variable = { which = region_id value = 112 }
				}
				if = {
					limit = {
						check_variable = { which = region_id value = 123 }
					}
					if = {
						limit = {
							check_variable = { which = region_id value = 129 }
						}
						if = {
							limit = {
								check_variable = { which = region_id value = 132 }
							}
							if = {
								limit = {
									check_variable = { which = region_id value = 133 }
								}
								if = {
									limit = {
										check_variable = { which = region_id value = 134 }
									}
									$effect$ = { id = 134 }
								}
								else = {
									$effect$ = { id = 133 }
								}
							}
							else = {
								$effect$ = { id = 132 }
							}
						}
						else = {
							if = {
								limit = {
									check_variable = { which = region_id value = 130 }
								}
								if = {
									limit = {
										check_variable = { which = region_id value = 131 }
									}
									$effect$ = { id = 131 }
								}
								else = {
									$effect$ = { id = 130 }
								}
							}
							else = {
								$effect$ = { id = 129 }
							}
						}
					}
					else = {
						if = {
							limit = {
								check_variable = { which = region_id value = 126 }
							}
							if = {
								limit = {
									check_variable = { which = region_id value = 127 }
								}
								if = {
									limit = {
										check_variable = { which = region_id value = 128 }
									}
									$effect$ = { id = 128 }
								}
								else = {
									$effect$ = { id = 127 }
								}
							}
							else = {
								$effect$ = { id = 126 }
							}
						}
						else = {
							if = {
								limit = {
									check_variable = { which = region_id value = 124 }
								}
								if = {
									limit = {
										check_variable = { which = region_id value = 125 }
									}
									$effect$ = { id = 125 }
								}
								else = {
									$effect$ = { id = 124 }
								}
							}
							else = {
								$effect$ = { id = 123 }
							}
						}
					}
				}
				else = {
					if = {
						limit = {
							check_variable = { which = region_id value = 117 }
						}
						if = {
							limit = {
								check_variable = { which = region_id value = 120 }
							}
							if = {
								limit = {
									check_variable = { which = region_id value = 121 }
								}
								if = {
									limit = {
										check_variable = { which = region_id value = 122 }
									}
									$effect$ = { id = 122 }
								}
								else = {
									$effect$ = { id = 121 }
								}
							}
							else = {
								$effect$ = { id = 120 }
							}
						}
						else = {
							if = {
								limit = {
									check_variable = { which = region_id value = 118 }
								}
								if = {
									limit = {
										check_variable = { which = region_id value = 119 }
									}
									$effect$ = { id = 119 }
								}
								else = {
									$effect$ = { id = 118 }
								}
							}
							else = {
								$effect$ = { id = 117 }
							}
						}
					}
					else = {
						if = {
							limit = {
								check_variable = { which = region_id value = 114 }
							}
							if = {
								limit = {
									check_variable = { which = region_id value = 115 }
								}
								if = {
									limit = {
										check_variable = { which = region_id value = 116 }
									}
									$effect$ = { id = 116 }
								}
								else = {
									$effect$ = { id = 115 }
								}
							}
							else = {
								$effect$ = { id = 114 }
							}
						}
						else = {
							if = {
								limit = {
									check_variable = { which = region_id value = 113 }
								}
								$effect$ = { id = 113 }
							}
							else = {
								$effect$ = { id = 112 }
							}
						}
					}
				}
			}
			else = {
				if = {
					limit = {
						check_variable = { which = region_id value = 101 }
					}
					if = {
						limit = {
							check_variable = { which = region_id value = 106 }
						}
						if = {
							limit = {
								check_variable = { which = region_id value = 109 }
							}
							if = {
								limit = {
									check_variable = { which = region_id value = 110 }
								}
								if = {
									limit = {
										check_variable = { which = region_id value = 111 }
									}
									$effect$ = { id = 111 }
								}
								else = {
									$effect$ = { id = 110 }
								}
							}
							else = {
								$effect$ = { id = 109 }
							}
						}
						else = {
							if = {
								limit = {
									check_variable = { which = region_id value = 107 }
								}
								if = {
									limit = {
										check_variable = { which = region_id value = 108 }
									}
									$effect$ = { id = 108 }
								}
								else = {
									$effect$ = { id = 107 }
								}
							}
							else = {
								$effect$ = { id = 106 }
							}
						}
					}
					else = {
						if = {
							limit = {
								check_variable = { which = region_id value = 103 }
							}
							if = {
								limit = {
									check_variable = { which = region_id value = 104 }
								}
								if = {
									limit = {
										check_variable = { which = region_id value = 105 }
									}
									$effect$ = { id = 105 }
								}
								else = {
									$effect$ = { id = 104 }
								}
							}
							else = {
								$effect$ = { id = 103 }
							}
						}
						else = {
							if = {
								limit = {
									check_variable = { which = region_id value = 102 }
								}
								$effect$ = { id = 102 }
							}
							else = {
								$effect$ = { id = 101 }
							}
						}
					}
				}
				else = {
					if = {
						limit = {
							check_variable = { which = region_id value = 95 }
						}
						if = {
							limit = {
								check_variable = { which = region_id value = 98 }
							}
							if = {
								limit = {
									check_variable = { which = region_id value = 99 }
								}
								if = {
									limit = {
										check_variable = { which = region_id value = 100 }
									}
									$effect$ = { id = 100 }
								}
								else = {
									$effect$ = { id = 99 }
								}
							}
							else = {
								$effect$ = { id = 98 }
							}
						}
						else = {
							if = {
								limit = {
									check_variable = { which = region_id value = 96 }
								}
								if = {
									limit = {
										check_variable = { which = region_id value = 97 }
									}
									$effect$ = { id = 97 }
								}
								else = {
									$effect$ = { id = 96 }
								}
							}
							else = {
								$effect$ = { id = 95 }
							}
						}
					}
					else = {
						if = {
							limit = {
								check_variable = { which = region_id value = 92 }
							}
							if = {
								limit = {
									check_variable = { which = region_id value = 93 }
								}
								if = {
									limit = {
										check_variable = { which = region_id value = 94 }
									}
									$effect$ = { id = 94 }
								}
								else = {
									$effect$ = { id = 93 }
								}
							}
							else = {
								$effect$ = { id = 92 }
							}
						}
						else = {
							if = {
								limit = {
									check_variable = { which = region_id value = 91 }
								}
								$effect$ = { id = 91 }
							}
							else = {
								$effect$ = { id = 90 }
							}
						}
					}
				}
			}
		}
	}
	else = {
		if = {
			limit = {
				check_variable = { which = region_id value = 45 }
			}
			if = {
				limit = {
					check_variable = { which = region_id value = 67 }
				}
				if = {
					limit = {
						check_variable = { which = region_id value = 78 }
					}
					if = {
						limit = {
							check_variable = { which = region_id value = 84 }
						}
						if = {
							limit = {
								check_variable = { which = region_id value = 87 }
							}
							if = {
								limit = {
									check_variable = { which = region_id value = 88 }
								}
								if = {
									limit = {
										check_variable = { which = region_id value = 89 }
									}
									$effect$ = { id = 89 }
								}
								else = {
									$effect$ = { id = 88 }
								}
							}
							else = {
								$effect$ = { id = 87 }
							}
						}
						else = {
							if = {
								limit = {
									check_variable = { which = region_id value = 85 }
								}
								if = {
									limit = {
										check_variable = { which = region_id value = 86 }
									}
									$effect$ = { id = 86 }
								}
								else = {
									$effect$ = { id = 85 }
								}
							}
							else = {
								$effect$ = { id = 84 }
							}
						}
					}
					else = {
						if = {
							limit = {
								check_variable = { which = region_id value = 81 }
							}
							if = {
								limit = {
									check_variable = { which = region_id value = 82 }
								}
								if = {
									limit = {
										check_variable = { which = region_id value = 83 }
									}
									$effect$ = { id = 83 }
								}
								else = {
									$effect$ = { id = 82 }
								}
							}
							else = {
								$effect$ = { id = 81 }
							}
						}
						else = {
							if = {
								limit = {
									check_variable = { which = region_id value = 79 }
								}
								if = {
									limit = {
										check_variable = { which = region_id value = 80 }
									}
									$effect$ = { id = 80 }
								}
								else = {
									$effect$ = { id = 79 }
								}
							}
							else = {
								$effect$ = { id = 78 }
							}
						}
					}
				}
				else = {
					if = {
						limit = {
							check_variable = { which = region_id value = 72 }
						}
						if = {
							limit = {
								check_variable = { which = region_id value = 75 }
							}
							if = {
								limit = {
									check_variable = { which = region_id value = 76 }
								}
								if = {
									limit = {
										check_variable = { which = region_id value = 77 }
									}
									$effect$ = { id = 77 }
								}
								else = {
									$effect$ = { id = 76 }
								}
							}
							else = {
								$effect$ = { id = 75 }
							}
						}
						else = {
							if = {
								limit = {
									check_variable = { which = region_id value = 73 }
								}
								if = {
									limit = {
										check_variable = { which = region_id value = 74 }
									}
									$effect$ = { id = 74 }
								}
								else = {
									$effect$ = { id = 73 }
								}
							}
							else = {
								$effect$ = { id = 72 }
							}
						}
					}
					else = {
						if = {
							limit = {
								check_variable = { which = region_id value = 69 }
							}
							if = {
								limit = {
									check_variable = { which = region_id value = 70 }
								}
								if = {
									limit = {
										check_variable = { which = region_id value = 71 }
									}
									$effect$ = { id = 71 }
								}
								else = {
									$effect$ = { id = 70 }
								}
							}
							else = {
								$effect$ = { id = 69 }
							}
						}
						else = {
							if = {
								limit = {
									check_variable = { which = region_id value = 68 }
								}
								$effect$ = { id = 68 }
							}
							else = {
								$effect$ = { id = 67 }
							}
						}
					}
				}
			}
			else = {
				if = {
					limit = {
						check_variable = { which = region_id value = 56 }
					}
					if = {
						limit = {
							check_variable = { which = region_id value = 61 }
						}
						if = {
							limit = {
								check_variable = { which = region_id value = 64 }
							}
							if = {
								limit = {
									check_variable = { which = region_id value = 65 }
								}
								if = {
									limit = {
										check_variable = { which = region_id value = 66 }
									}
									$effect$ = { id = 66 }
								}
								else = {
									$effect$ = { id = 65 }
								}
							}
							else = {
								$effect$ = { id = 64 }
							}
						}
						else = {
							if = {
								limit = {
									check_variable = { which = region_id value = 62 }
								}
								if = {
									limit = {
										check_variable = { which = region_id value = 63 }
									}
									$effect$ = { id = 63 }
								}
								else = {
									$effect$ = { id = 62 }
								}
							}
							else = {
								$effect$ = { id = 61 }
							}
						}
					}
					else = {
						if = {
							limit = {
								check_variable = { which = region_id value = 58 }
							}
							if = {
								limit = {
									check_variable = { which = region_id value = 59 }
								}
								if = {
									limit = {
										check_variable = { which = region_id value = 60 }
									}
									$effect$ = { id = 60 }
								}
								else = {
									$effect$ = { id = 59 }
								}
							}
							else = {
								$effect$ = { id = 58 }
							}
						}
						else = {
							if = {
								limit = {
									check_variable = { which = region_id value = 57 }
								}
								$effect$ = { id = 57 }
							}
							else = {
								$effect$ = { id = 56 }
							}
						}
					}
				}
				else = {
					if = {
						limit = {
							check_variable = { which = region_id value = 50 }
						}
						if = {
							limit = {
								check_variable = { which = region_id value = 53 }
							}
							if = {
								limit = {
									check_variable = { which = region_id value = 54 }
								}
								if = {
									limit = {
										check_variable = { which = region_id value = 55 }
									}
									$effect$ = { id = 55 }
								}
								else = {
									$effect$ = { id = 54 }
								}
							}
							else = {
								$effect$ = { id = 53 }
							}
						}
						else = {
							if = {
								limit = {
									check_variable = { which = region_id value = 51 }
								}
								if = {
									limit = {
										check_variable = { which = region_id value = 52 }
									}
									$effect$ = { id = 52 }
								}
								else = {
									$effect$ = { id = 51 }
								}
							}
							else = {
								$effect$ = { id = 50 }
							}
						}
					}
					else = {
						if = {
							limit = {
								check_variable = { which = region_id value = 47 }
							}
							if = {
								limit = {
									check_variable = { which = region_id value = 48 }
								}
								if = {
									limit = {
										check_variable = { which = region_id value = 49 }
									}
									$effect$ = { id = 49 }
								}
								else = {
									$effect$ = { id = 48 }
								}
							}
							else = {
								$effect$ = { id = 47 }
							}
						}
						else = {
							if = {
								limit = {
									check_variable = { which = region_id value = 46 }
								}
								$effect$ = { id = 46 }
							}
							else = {
								$effect$ = { id = 45 }
							}
						}
					}
				}
			}
		}
		else = {
			if = {
				limit = {
					check_variable = { which = region_id value = 23 }
				}
				if = {
					limit = {
						check_variable = { which = region_id value = 34 }
					}
					if = {
						limit = {
							check_variable = { which = region_id value = 39 }
						}
						if = {
							limit = {
								check_variable = { which = region_id value = 42 }
							}
							if = {
								limit = {
									check_variable = { which = region_id value = 43 }
								}
								if = {
									limit = {
										check_variable = { which = region_id value = 44 }
									}
									$effect$ = { id = 44 }
								}
								else = {
									$effect$ = { id = 43 }
								}
							}
							else = {
								$effect$ = { id = 42 }
							}
						}
						else = {
							if = {
								limit = {
									check_variable = { which = region_id value = 40 }
								}
								if = {
									limit = {
										check_variable = { which = region_id value = 41 }
									}
									$effect$ = { id = 41 }
								}
								else = {
									$effect$ = { id = 40 }
								}
							}
							else = {
								$effect$ = { id = 39 }
							}
						}
					}
					else = {
						if = {
							limit = {
								check_variable = { which = region_id value = 36 }
							}
							if = {
								limit = {
									check_variable = { which = region_id value = 37 }
								}
								if = {
									limit = {
										check_variable = { which = region_id value = 38 }
									}
									$effect$ = { id = 38 }
								}
								else = {
									$effect$ = { id = 37 }
								}
							}
							else = {
								$effect$ = { id = 36 }
							}
						}
						else = {
							if = {
								limit = {
									check_variable = { which = region_id value = 35 }
								}
								$effect$ = { id = 35 }
							}
							else = {
								$effect$ = { id = 34 }
							}
						}
					}
				}
				else = {
					if = {
						limit = {
							check_variable = { which = region_id value = 28 }
						}
						if = {
							limit = {
								check_variable = { which = region_id value = 31 }
							}
							if = {
								limit = {
									check_variable = { which = region_id value = 32 }
								}
								if = {
									limit = {
										check_variable = { which = region_id value = 33 }
									}
									$effect$ = { id = 33 }
								}
								else = {
									$effect$ = { id = 32 }
								}
							}
							else = {
								$effect$ = { id = 31 }
							}
						}
						else = {
							if = {
								limit = {
									check_variable = { which = region_id value = 29 }
								}
								if = {
									limit = {
										check_variable = { which = region_id value = 30 }
									}
									$effect$ = { id = 30 }
								}
								else = {
									$effect$ = { id = 29 }
								}
							}
							else = {
								$effect$ = { id = 28 }
							}
						}
					}
					else = {
						if = {
							limit = {
								check_variable = { which = region_id value = 25 }
							}
							if = {
								limit = {
									check_variable = { which = region_id value = 26 }
								}
								if = {
									limit = {
										check_variable = { which = region_id value = 27 }
									}
									$effect$ = { id = 27 }
								}
								else = {
									$effect$ = { id = 26 }
								}
							}
							else = {
								$effect$ = { id = 25 }
							}
						}
						else = {
							if = {
								limit = {
									check_variable = { which = region_id value = 24 }
								}
								$effect$ = { id = 24 }
							}
							else = {
								$effect$ = { id = 23 }
							}
						}
					}
				}
			}
			else = {
				if = {
					limit = {
						check_variable = { which = region_id value = 12 }
					}
					if = {
						limit = {
							check_variable = { which = region_id value = 17 }
						}
						if = {
							limit = {
								check_variable = { which = region_id value = 20 }
							}
							if = {
								limit = {
									check_variable = { which = region_id value = 21 }
								}
								if = {
									limit = {
										check_variable = { which = region_id value = 22 }
									}
									$effect$ = { id = 22 }
								}
								else = {
									$effect$ = { id = 21 }
								}
							}
							else = {
								$effect$ = { id = 20 }
							}
						}
						else = {
							if = {
								limit = {
									check_variable = { which = region_id value = 18 }
								}
								if = {
									limit = {
										check_variable = { which = region_id value = 19 }
									}
									$effect$ = { id = 19 }
								}
								else = {
									$effect$ = { id = 18 }
								}
							}
							else = {
								$effect$ = { id = 17 }
							}
						}
					}
					else = {
						if = {
							limit = {
								check_variable = { which = region_id value = 14 }
							}
							if = {
								limit = {
									check_variable = { which = region_id value = 15 }
								}
								if = {
									limit = {
										check_variable = { which = region_id value = 16 }
									}
									$effect$ = { id = 16 }
								}
								else = {
									$effect$ = { id = 15 }
								}
							}
							else = {
								$effect$ = { id = 14 }
							}
						}
						else = {
							if = {
								limit = {
									check_variable = { which = region_id value = 13 }
								}
								$effect$ = { id = 13 }
							}
							else = {
								$effect$ = { id = 12 }
							}
						}
					}
				}
				else = {
					if = {
						limit = {
							check_variable = { which = region_id value = 6 }
						}
						if = {
							limit = {
								check_variable = { which = region_id value = 9 }
							}
							if = {
								limit = {
									check_variable = { which = region_id value = 10 }
								}
								if = {
									limit = {
										check_variable = { which = region_id value = 11 }
									}
									$effect$ = { id = 11 }
								}
								else = {
									$effect$ = { id = 10 }
								}
							}
							else = {
								$effect$ = { id = 9 }
							}
						}
						else = {
							if = {
								limit = {
									check_variable = { which = region_id value = 7 }
								}
								if = {
									limit = {
										check_variable = { which = region_id value = 8 }
									}
									$effect$ = { id = 8 }
								}
								else = {
									$effect$ = { id = 7 }
								}
							}
							else = {
								$effect$ = { id = 6 }
							}
						}
					}
					else = {
						if = {
							limit = {
								check_variable = { which = region_id value = 3 }
							}
							if = {
								limit = {
									check_variable = { which = region_id value = 4 }
								}
								if = {
									limit = {
										check_variable = { which = region_id value = 5 }
									}
									$effect$ = { id = 5 }
								}
								else = {
									$effect$ = { id = 4 }
								}
							}
							else = {
								$effect$ = { id = 3 }
							}
						}
						else = {
							if = {
								limit = {
									check_variable = { which = region_id value = 2 }
								}
								$effect$ = { id = 2 }
							}
							else = {
								$effect$ = { id = 1 }
							}
						}
					}
				}
			}
		}
	}
}

sr_effect = {
	if = {
		limit = {
			check_variable = { which = sr_id value = 19 }
		}
		if = {
			limit = {
				check_variable = { which = sr_id value = 28 }
			}
			if = {
				limit = {
					check_variable = { which = sr_id value = 32 }
				}
				if = {
					limit = {
						check_variable = { which = sr_id value = 34 }
					}
					if = {
						limit = {
							check_variable = { which = sr_id value = 35 }
						}
						if = {
							limit = {
								check_variable = { which = sr_id value = 36 }
							}
							$effect$ = { id = 36 }
						}
						else = {
							$effect$ = { id = 35 }
						}
					}
					else = {
						$effect$ = { id = 34 }
					}
				}
				else = {
					if = {
						limit = {
							check_variable = { which = sr_id value = 33 }
						}
						$effect$ = { id = 33 }
					}
					else = {
						$effect$ = { id = 32 }
					}
				}
			}
			else = {
				if = {
					limit = {
						check_variable = { which = sr_id value = 30 }
					}
					if = {
						limit = {
							check_variable = { which = sr_id value = 31 }
						}
						$effect$ = { id = 31 }
					}
					else = {
						$effect$ = { id = 30 }
					}
				}
				else = {
					if = {
						limit = {
							check_variable = { which = sr_id value = 29 }
						}
						$effect$ = { id = 29 }
					}
					else = {
						$effect$ = { id = 28 }
					}
				}
			}
		}
		else = {
			if = {
				limit = {
					check_variable = { which = sr_id value = 23 }
				}
				if = {
					limit = {
						check_variable = { which = sr_id value = 25 }
					}
					if = {
						limit = {
							check_variable = { which = sr_id value = 26 }
						}
						if = {
							limit = {
								check_variable = { which = sr_id value = 27 }
							}
							$effect$ = { id = 27 }
						}
						else = {
							$effect$ = { id = 26 }
						}
					}
					else = {
						$effect$ = { id = 25 }
					}
				}
				else = {
					if = {
						limit = {
							check_variable = { which = sr_id value = 24 }
						}
						$effect$ = { id = 24 }
					}
					else = {
						$effect$ = { id = 23 }
					}
				}
			}
			else = {
				if = {
					limit = {
						check_variable = { which = sr_id value = 21 }
					}
					if = {
						limit = {
							check_variable = { which = sr_id value = 22 }
						}
						$effect$ = { id = 22 }
					}
					else = {
						$effect$ = { id = 21 }
					}
				}
				else = {
					if = {
						limit = {
							check_variable = { which = sr_id value = 20 }
						}
						$effect$ = { id = 20 }
					}
					else = {
						$effect$ = { id = 19 }
					}
				}
			}
		}
	}
	else = {
		if = {
			limit = {
				check_variable = { which = sr_id value = 10 }
			}
			if = {
				limit = {
					check_variable = { which = sr_id value = 14 }
				}
				if = {
					limit = {
						check_variable = { which = sr_id value = 16 }
					}
					if = {
						limit = {
							check_variable = { which = sr_id value = 17 }
						}
						if = {
							limit = {
								check_variable = { which = sr_id value = 18 }
							}
							$effect$ = { id = 18 }
						}
						else = {
							$effect$ = { id = 17 }
						}
					}
					else = {
						$effect$ = { id = 16 }
					}
				}
				else = {
					if = {
						limit = {
							check_variable = { which = sr_id value = 15 }
						}
						$effect$ = { id = 15 }
					}
					else = {
						$effect$ = { id = 14 }
					}
				}
			}
			else = {
				if = {
					limit = {
						check_variable = { which = sr_id value = 12 }
					}
					if = {
						limit = {
							check_variable = { which = sr_id value = 13 }
						}
						$effect$ = { id = 13 }
					}
					else = {
						$effect$ = { id = 12 }
					}
				}
				else = {
					if = {
						limit = {
							check_variable = { which = sr_id value = 11 }
						}
						$effect$ = { id = 11 }
					}
					else = {
						$effect$ = { id = 10 }
					}
				}
			}
		}
		else = {
			if = {
				limit = {
					check_variable = { which = sr_id value = 5 }
				}
				if = {
					limit = {
						check_variable = { which = sr_id value = 7 }
					}
					if = {
						limit = {
							check_variable = { which = sr_id value = 8 }
						}
						if = {
							limit = {
								check_variable = { which = sr_id value = 9 }
							}
							$effect$ = { id = 9 }
						}
						else = {
							$effect$ = { id = 8 }
						}
					}
					else = {
						$effect$ = { id = 7 }
					}
				}
				else = {
					if = {
						limit = {
							check_variable = { which = sr_id value = 6 }
						}
						$effect$ = { id = 6 }
					}
					else = {
						$effect$ = { id = 5 }
					}
				}
			}
			else = {
				if = {
					limit = {
						check_variable = { which = sr_id value = 3 }
					}
					if = {
						limit = {
							check_variable = { which = sr_id value = 4 }
						}
						$effect$ = { id = 4 }
					}
					else = {
						$effect$ = { id = 3 }
					}
				}
				else = {
					if = {
						limit = {
							check_variable = { which = sr_id value = 2 }
						}
						$effect$ = { id = 2 }
					}
					else = {
						$effect$ = { id = 1 }
					}
				}
			}
		}
	}
}

cont_effect = {
	if = {
		limit = {
			check_variable = { which = cont_id value = 6 }
		}
		if = {
			limit = {
				check_variable = { which = cont_id value = 9 }
			}
			if = {
				limit = {
					check_variable = { which = cont_id value = 10 }
				}
				if = {
					limit = {
						check_variable = { which = cont_id value = 11 }
					}
					$effect$ = { id = 11 }
				}
				else = {
					$effect$ = { id = 10 }
				}
			}
			else = {
				$effect$ = { id = 9 }
			}
		}
		else = {
			if = {
				limit = {
					check_variable = { which = cont_id value = 7 }
				}
				if = {
					limit = {
						check_variable = { which = cont_id value = 8 }
					}
					$effect$ = { id = 8 }
				}
				else = {
					$effect$ = { id = 7 }
				}
			}
			else = {
				$effect$ = { id = 6 }
			}
		}
	}
	else = {
		if = {
			limit = {
				check_variable = { which = cont_id value = 3 }
			}
			if = {
				limit = {
					check_variable = { which = cont_id value = 4 }
				}
				if = {
					limit = {
						check_variable = { which = cont_id value = 5 }
					}
					$effect$ = { id = 5 }
				}
				else = {
					$effect$ = { id = 4 }
				}
			}
			else = {
				$effect$ = { id = 3 }
			}
		}
		else = {
			if = {
				limit = {
					check_variable = { which = cont_id value = 2 }
				}
				$effect$ = { id = 2 }
			}
			else = {
				$effect$ = { id = 1 }
			}
		}
	}
}


# Actual Effects
# POP_Census
region_census_1 = {
	region_$id$ = {
		PREV = { change_variable = { which = wealth_regional_to_farm which = PREV } }
	}
	region_$id$ = {
		set_variable = { which = wealth_regional_to_farm                    which = PREV }
		set_variable = { which = farming_efficiency_urban_invested          which = wealth_regional_to_farm }
		multiply_variable = { which = farming_efficiency_urban_invested     which = historic_innate_fertility_region_share }
		change_variable = { which = farm_efficiency_ducats_invested         which = farming_efficiency_urban_invested }
		set_variable = { which = farming_efficiency_urban_invested value = 0 }
	}
}

region_census_2 = {
	region_$id$ = {
		limit = {
			check_variable = { which = urban_production_power value = 0.1 }
		}
		PREV = {
			change_variable = { which = urban_production_skill_weight which = PREV }
			
			if = {
				limit = {
					PREV = { has_province_flag = production_spread }
				}
				change_variable = { which = urban_production_skill_spread which = PREV }
			}
		}
	}
}

region_census_3 = {
	region_$id$ = {
		limit = {
			check_variable = { which = urban_production_power value = 0.1 }
		}
		set_variable = { which = urban_production_skill_spread_sum which = PREV }
		set_variable = { which = urban_production_skill_weight_sum which = PREV }
		
		set_variable = { which = urban_production_skill_gain_region which = urban_production_skill_spread_sum }
		multiply_variable = { which = urban_production_skill_gain_region which = urban_production_skill_weight }
		divide_variable = { which = urban_production_skill_gain_region which = urban_production_skill_weight_sum }
	}
}

sr_census_1 = {
	sr_$id$ = {
		limit = {
			check_variable = { which = urban_production_power value = 0.1 }
		}
		PREV = {
			change_variable = { which = urban_production_skill_weight which = PREV }
			
			if = {
				limit = {
					PREV = { has_province_flag = production_spread }
				}
				change_variable = { which = urban_production_skill_spread which = PREV }
			}
		}
	}
}

sr_census_2 = {
	sr_$id$ = {
		limit = {
			check_variable = { which = urban_production_power value = 0.1 }
		}
		set_variable = { which = urban_production_skill_spread_sum which = PREV }
		set_variable = { which = urban_production_skill_weight_sum which = PREV }
		
		set_variable = { which = urban_production_skill_gain_sr which = urban_production_skill_spread_sum }
		divide_variable = { which = urban_production_skill_gain_sr which = urban_production_skill_weight_sum }
		multiply_variable = { which = urban_production_skill_gain_sr which = urban_production_skill_weight }
	}
}


# POP_population_growth
region_popgrowth_1 = {
	region_$id$ = {
		PREV = {
			change_variable = {   which = surplus_food 						which = PREV }
			change_variable = {   which = regional_food_before_consumption     which = PREV }
		}
	}
}

region_popgrowth_2 = {
	region_$id$ = {
		set_variable = { which = regional_food_factor 				which = PREV }
		set_variable = { which = regional_food_surplus				which = PREV }
		set_variable = { which = regional_food_demand_modifier  	which = PREV }
		set_variable = { which = food_price_local 					which = PREV }
		set_variable = { which = regional_food_eaten_percent 		which = PREV }
	}
}

region_popgrowth_3 = {
	region_$id$ = {
		PREV = { change_variable = {   which = base_food			which = PREV } }
	}
}

region_popgrowth_4 = {
	region_$id$ = {
		PREV = {
			change_variable = { which = rural_population	which = PREV }
			change_variable = { which = urban_population	which = PREV }
		}
	}
}

cont_popgrowth_1 = {
	cont_$id$ = {
		limit = {
			is_city = yes
		}
		set_variable = { 			which = continent_tech_average 	which = total_country_tech }
		
		PREV = {
			change_variable = { which = continent_tech_members		value = 1 }
			change_variable = { which = continent_tech_average		which = PREV }
		}
	}
}

cont_popgrowth_2 = {
	cont_$id$ = {
		limit = {
			is_capital = yes
		}
		set_variable = { 		   which = continent_tech_average 		which = PREV }
		
		owner = { set_variable = { which = continent_tech_average 		which = PREV } }
	}
}


# POP_shifting_modifiers
region_shiftmod_1 = {
	region_$id$ = {
		limit = {
			base_production = 5
			check_variable = { which = urban_population which = event_target:region_cand }
		}
		save_event_target_as = region_cand
	}
}


# POP_startup_events
sr_startup_1 = {
	sr_$id$ = {
		set_province_flag = part_of_@PREV
		
		set_variable = { which = sr_id which = PREV }
	}
}

cont_startup_1 = {
	cont_$id$ = {
		set_province_flag = part_cont_of_@PREV
		
		set_variable = { which = cont_id which = PREV }
	}
}


# POP_shifting_trade
sr_shifting_1 = {
	sr_$id$ = {
		PREV = { change_variable = { which = trade_power    which = PREV } }
	}
}

sr_shifting_2 = {
	sr_$id$ = {
		limit = {
			NOT = { has_province_flag = trade_center_modifier_assigned }
			
			check_variable = { which = trade_power which = event_target:cur_max }
		}
		save_event_target_as = cur_max
	}
}

sr_shifting_3 = {
	sr_$id$ = {
		limit = {
			check_variable = { which = urban_production_power value = 0.1 }
		}
		PREV = { change_variable = { which = urban_production_power    which = PREV } }
	}
}

sr_shifting_4 = {
	sr_$id$ = {
		limit = {
			NOT = { has_province_flag = production_center_modifier_assigned }
			
			check_variable = { which = urban_production_power which = event_target:cur_max }
		}
		save_event_target_as = cur_max
	}
}

sr_shifting_5 = {
	sr_$id$ = {
		PREV = { change_variable = { which = art_power_ticker    which = PREV } }
	}
}

sr_shifting_6 = {
	sr_$id$ = {
		limit = {
			NOT = { has_province_flag = art_center_modifier_assigned }
			
			check_variable = { which = art_power which = event_target:cur_max }
		}
		save_event_target_as = cur_max
	}
}

cont_shifting_1 = {
	cont_$id$ = {
		limit = {
			has_province_flag = art_center_modifier_assigned
			 
			check_variable = { which = art_power which = event_target:cur_max }
		}
		save_event_target_as = cur_max
	}
}