# 1024 - Sanuki
# GG/LS - Japanese Civil War

owner = HKW
controller = HKW
add_core = HKW

capital = "Takamatu"
trade_goods = fish #linen
culture = shikoku
religion = mahayana #shinbutsu

hre = no

base_tax = 17
base_production = 0
base_manpower = 2

is_city = yes
harbour_infrastructure_1 = yes
local_fortification_1 = yes

discovered_by = chinese

500.1.1 = {
	add_permanent_province_modifier = {
		name = urban_goods_linen
		duration = -1
	}
}
1356.1.1 = {
	add_core = MIY
	add_core = CSK
}
1450.1.1 = {
	owner = MIY
	controller = MIY
}
1501.1.1 = {
	base_tax = 30
	base_production = 1
}
1542.1.1 = {
	discovered_by = POR
}
1550.1.1 = {
	owner = CSK
	controller = CSK
}
1585.1.1 = {
	owner = ODA
	controller = ODA
} # Hashiba (later Toyotomi) Hideyoshi invaded Shikoku with a force of 100,000 men, Chosokabe Motochika keeps only Tosa
1600.9.15 = {
	owner = TGW
	controller = TGW
} # Battle of Sekigahara
1615.6.4 = {
	owner = JAP
	controller = JAP
	add_core = JAP
}
