# 130 - Istria

owner = VEN
controller = VEN
add_core = VEN

capital = "Puola"
trade_goods = lumber
culture = dalmatian # 41.6% Croatian, 36.5% Italian, 13.7% Slovene
religion = catholic

hre = no

base_tax = 2
base_production = 0
base_manpower = 0

is_city = yes
temple = yes
harbour_infrastructure_2 = yes
local_fortification_1 = yes

discovered_by = western
discovered_by = eastern
discovered_by = muslim
discovered_by = turkishtech

450.1.1 = {
	set_province_flag = has_natural_harbour
	set_province_flag = has_small_natural_harbour
	set_province_flag = good_natural_place
	add_permanent_province_modifier = {
		name = "istria_natural_harbour"
		duration = -1
	}
}
1356.1.1 = {
	add_claim = AQU
}
#1379.1.1 = {
#	add_core = STY
#}
1382.1.1 = {
	remove_claim = AQU
}
#1490.1.1 = {
#	remove_core = STY
#}
1500.1.1 = {
	road_network = yes
}
1522.3.20 = {
	naval_arsenal = yes
	fort_14th = yes
}
1550.1.1 = {
	fort_14th = yes
} # The fort is rebuilt
1797.10.17 = {
	owner = HAB
	controller = HAB
	culture = slovenian
	add_core = HAB
	hre = yes
} # Treaty of Campo Formio
1805.12.26 = {
	owner = ITE
	controller = ITE
	add_core = ITE
} # Treaty of Pressburg
1806.7.12 = {
	hre = no
}
1809.10.14 = {
	owner = FRA
	controller = FRA
	add_core = FRA
	remove_core = ITE
}
1813.9.20 = {
	controller = HAB
} # Occupied by Austrian forces
1814.4.6 = {
	owner = HAB
	remove_core = FRA
} # Napoleon abdicates
1814.4.11 = { } # Trieste city, replacing Venezia
