# No previous file for Ivujivik

capital = "Ivujivik"
trade_goods = unknown
culture = inuit
religion = animism

hre = no

base_tax = 3
base_production = 0
base_manpower = 0

native_size = 35
native_ferocity = 2
native_hostileness = 5

450.1.1 = {
	set_province_flag = tribals_control_province
}
1610.1.1 = {
	discovered_by = ENG
}
1688.1.1 = {
	discovered_by = FRA
} # Pierre le Moyne
1707.5.12 = {
	discovered_by = GBR
}
1750.1.1 = {
	discovered_by = GBR
	owner = GBR
	controller = GBR
	citysize = 500
	capital = "Fort Richmond"
	trade_goods = fur
}
1775.1.1 = {
	add_core = GBR
}
