# 2710 - Rajkot

owner = GUJ
controller = GUJ
add_core = GUJ

capital = "Rajkot"
trade_goods = cotton
culture = saurashtri
religion = hinduism

hre = no

base_tax = 16
base_production = 0
base_manpower = 1

is_city = yes
plantations = yes

discovered_by = indian
discovered_by = muslim
discovered_by = steppestech
discovered_by = turkishtech

1356.1.1 = {
	#add_core = DLH
	unrest = 6
}
1396.1.1 = {
	owner = GUJ
	controller = GUJ
	remove_core = DLH
	unrest = 0
}
1498.1.1 = {
	discovered_by = POR
}
1511.1.1 = {
	base_tax = 21
}
1530.2.3 = {
	add_permanent_claim = MUG
}
1530.3.17 = {
	marketplace = yes
	road_network = yes
}
1556.1.1 = {
	owner = KAT
	controller = KAT
	add_core = KAT
} # Kathiawar independent while Ahmad Shahis are busy with internal conflicts
1591.1.1 = {
	controller = MUG
} # Conquered by Mughals
1592.1.1 = {
	owner = MUG
	add_core = MUG
} # Conquered by Mughals
1725.1.1 = {
	owner = GAK
	controller = GAK
	add_core = GAK
	remove_core = MUG
}
1802.1.1 = {
	owner = KAT
	controller = KAT
	remove_core = GAK
}
