# 2862 - Ben Arous

owner = HAF
controller = HAF
add_core = HAF

capital = "Nabeul"
trade_goods = olive
culture = tunisian
religion = sunni

hre = no

base_tax = 13
base_production = 0
base_manpower = 1

is_city = yes
local_fortification_1 = yes

discovered_by = western
discovered_by = eastern
discovered_by = muslim
discovered_by = turkishtech

1489.1.1 = {
	unrest = 4
} # Abu Zikriya Yahya overthrown by Abul Mumin
1490.1.1 = {
	unrest = 0
} # Abu Yahya recaptures the power
1500.3.3 = {
	base_tax = 11
}
1530.1.3 = {
	road_network = no
	paved_road_network = yes
	add_claim = TUR
}
1574.9.13 = {
	owner = TUR
	controller = TUR
	add_core = TUR
	add_core = TUN
	remove_core = HAF
	remove_core = SPA
} # Established direct control of the province
1591.1.1 = {
	unrest = 6
} # Janissary revolt
1592.1.1 = {
	unrest = 0
}
1702.1.1 = {
	unrest = 4
	add_core = ALG
} # Military coup in Tunisia, Algerian invasion
1703.1.1 = {
	unrest = 0
}
1705.1.1 = {
	owner = TUN
	controller = TUN
} # Husayn ibn Ali's rule brings some prosperity
1735.1.1 = {
	unrest = 6
} # Coup with Algerian support
1756.1.1 = {
	unrest = 0
} # The Husaynid Dynasty is restored
1881.5.12 = {
	owner = FRA
	controller = FRA
}
