# 427 - Chester

owner = ENG
controller = ENG
add_core = ENG

capital = "Chester"
trade_goods = wool
culture = northern_e
religion = catholic

hre = no

base_tax = 4
base_production = 0
base_manpower = 0

is_city = yes
warehouse = yes
local_fortification_1 = yes

discovered_by = western
discovered_by = muslim
discovered_by = eastern

1200.1.1 = {
	set_province_flag = freeholders_control_province
}
1264.1.1 = {
	add_permanent_province_modifier = {
		name = "county_palatine"
		duration = -1
	}
	set_province_flag = mined_goods
	set_province_flag = salt
}
1453.1.1 = {
	unrest = 5
} #Start of the War of the Roses
1461.6.1 = {
	unrest = 2
} #Coronation of Edward IV
1467.1.1 = {
	unrest = 5
} #Rivalry between Edward IV & Warwick
1471.1.1 = {
	unrest = 8
} #Unpopularity of Warwick & War with Burgundy
1471.5.4 = {
	unrest = 2
} #Murder of Henry VI & Restoration of Edward IV
1483.6.26 = {
	unrest = 8
} #Revulsion at Supposed Murder of the Princes in the Tower
1485.8.23 = {
	unrest = 0
} #Battle of Bosworth Field & the End of the War of the Roses
1520.5.5 = {
	base_tax = 6
	base_production = 0
	base_manpower = 0
}
1529.2.5 = {
	road_network = no
	paved_road_network = yes
}
1530.1.1 = {
	culture = english
}
1600.1.1 = {
	fort_14th = yes
} #Estimated
1644.1.1 = {
	controller = REB
} #Estimated
1645.1.1 = {
	controller = ENG
}
1654.1.1 = {
	remove_province_modifier = "county_palatine"
	add_permanent_province_modifier = {
		name = "county_palatine_reformed"
		duration = -1
	}
} # Now represented in Parliament
1707.5.12 = {
	owner = GBR
	controller = GBR
	add_core = GBR
	remove_core = ENG
}
1830.1.1 = {
	remove_province_modifier = "county_palatine_reformed"
} # Special privileges revoked
