# 5445 Qiannan

owner = YUA
controller = YUA

capital = "Sicheng"
trade_goods = indigo
culture = zhuang
religion = animism

hre = no

base_tax = 16
base_production = 0
base_manpower = 0

is_city = yes
temple = yes

discovered_by = chinese
discovered_by = steppestech

450.1.1 = {
	set_province_flag = tribals_control_province
	set_province_flag = mined_goods
	set_province_flag = tin
}
1276.1.1 = {
	owner = YUA
	controller = YUA
	add_core = YUA
}
1351.1.1 = {
	owner = ZHN
	controller = ZHN
	add_core = ZHN
}
1375.1.1 = {
	owner = MNG
	controller = MNG
	add_core = MNG
	remove_core = ZHN
	remove_core = YUA
}
1520.2.2 = {
	base_tax = 23
	base_manpower = 2
}
1645.6.25 = {
	owner = QNG
	controller = QNG
	add_core = QNG
} # The Qing Dynasty
1662.1.1 = {
	remove_core = MNG
}
