# 5499 Yuxi

owner = DLI
controller = DLI

capital = "Kunming"
trade_goods = rice
culture = yizu
religion = animism

hre = no

base_tax = 8
base_production = 0
base_manpower = 0

is_city = yes
road_network = yes
temple = yes

discovered_by = chinese
discovered_by = steppestech

450.1.1 = {
	set_province_flag = tribals_control_province
}
1276.1.1 = {
	owner = YUA
	controller = YUA
	add_core = YUA
	set_province_flag = mined_goods
	set_province_flag = gold
	add_permanent_province_modifier = {
		name = "kunming_silk_road"
		duration = -1
	}
}
1351.1.1 = {
	owner = LNG
	controller = LNG
	add_core = LNG
}
1369.3.17 = {
	owner = MNG
	controller = MNG
	add_core = MNG
}
1520.2.2 = {
	base_tax = 12
}
1645.6.25 = {
	owner = QNG
	controller = QNG
	add_core = QNG
} # The Qing Dynasty
1662.1.1 = {
	remove_core = MNG
}
