# 821 - Putomayo

capital = "Putomayo"
trade_goods = unknown
culture = jivaro
religion = pantheism

hre = no

base_tax = 20
base_production = 0
base_manpower = 0

native_size = 45
native_ferocity = 1
native_hostileness = 2

450.1.1 = {
	set_province_flag = tribals_control_province
}
1500.1.1 = {
	base_tax = 1
}
1700.1.1 = {
	discovered_by = SPA
	owner = SPA
	controller = SPA
	citysize = 100
	trade_goods = coffee
	set_province_flag = trade_good_set
}
1725.1.1 = {
	add_core = SPA
}
1750.1.1 = {
	add_core = COL
	culture = colombian
}
1810.7.20 = {
	owner = COL
	controller = COL
} # Colombia declares independence
1819.8.7 = {
	remove_core = SPA
} # Colombia's independence is recongnized

# 1831.11.19 - Grand Colombia is dissolved
