propagation_of_state_religion = {
	
	category = 3
	
	allow = {
		any_owned_province = {
			has_owner_religion = no
		}
		NOT = { has_idea_group = humanist_ideas }
	}
	
	effect = {
		
	}
	
	modifier = {
		global_missionary_strength = 0.01
		missionaries = 1
	}
	
	ai_will_do = {
		factor = 1
		modifier = {
			factor = 2
			num_of_owned_provinces_with = {
				value = 10
				has_owner_religion = no
			}
		}
	}
}