country_decisions = {

	stop_shadow_kingdom = {
		major = yes
		potential = {
			ai = no
			NOT = { has_global_flag = italy_out_of_HRE }
			has_global_flag = enable_stop_shadow_kingdom
			is_emperor = yes
		}
		allow = {
			NOT = { is_year = 1490 }
			custom_trigger_tooltip = {
				tooltip = eastern_italy_in_hre_tooltip
				# East Italy Region
				emilia_romagna_area = {
					type = all
					OR = {
						owned_by = ROOT
						is_part_of_hre = yes
						owner = {
							is_subject_of = ROOT
						}
					}
				}
				marche_area = {
					type = all
					OR = {
						owned_by = ROOT
						is_part_of_hre = yes
						owner = {
							is_subject_of = ROOT
						}
					}
				}
				# Non - Venice HRE area
				108 = {
					OR = {
						owned_by = ROOT
						is_part_of_hre = yes
						owner = {
							is_subject_of = ROOT
						}
					}
				}
				3382 = {
					OR = {
						owned_by = ROOT
						is_part_of_hre = yes
						owner = {
							is_subject_of = ROOT
						}
					}
				}
				1348 = {
					OR = {
						owned_by = ROOT
						is_part_of_hre = yes
						owner = {
							is_subject_of = ROOT
						}
					}
				}
				1858 = {
					OR = {
						owned_by = ROOT
						is_part_of_hre = yes
						owner = {
							is_subject_of = ROOT
						}
					}
				}
				111 = {
					OR = {
						owned_by = ROOT
						is_part_of_hre = yes
						owner = {
							is_subject_of = ROOT
						}
					}
				}
			}
			custom_trigger_tooltip = {
				tooltip = western_italy_in_hre_tooltip
				# West Italy Region
				lombardy_area = {
					type = all
					OR = {
						owned_by = ROOT
						is_part_of_hre = yes
						owner = {
							is_subject_of = ROOT
						}
					}
				}
				piedmont_area = {
					type = all
					OR = {
						owned_by = ROOT
						is_part_of_hre = yes
						owner = {
							is_subject_of = ROOT
						}
					}
				}
				padan_area = {
					type = all
					OR = {
						owned_by = ROOT
						is_part_of_hre = yes
						owner = {
							is_subject_of = ROOT
						}
					}
				}
				# Non - Genoa HRE area
				102 = {
					OR = {
						owned_by = ROOT
						is_part_of_hre = yes
						owner = {
							is_subject_of = ROOT
						}
					}
				}
				2564 = {
					OR = {
						owned_by = ROOT
						is_part_of_hre = yes
						owner = {
							is_subject_of = ROOT
						}
					}
				}
			}
			custom_trigger_tooltip = {
				tooltip = central_italy_in_hre_tooltip
				tuscany_area = {
					type = all
					OR = {
						owned_by = ROOT
						is_part_of_hre = yes
						owner = {
							is_subject_of = ROOT
						}
					}
				}
				siena_area = {
					type = all
					OR = {
						owned_by = ROOT
						is_part_of_hre = yes
						owner = {
							is_subject_of = ROOT
						}
					}
				}
				lazio_area = {
					type = all
					OR = {
						owned_by = ROOT
						is_part_of_hre = yes
						owner = {
							is_subject_of = ROOT
						}
					}
				}
				#Corsica
				1247 = {
					OR = {
						owned_by = ROOT
						is_part_of_hre = yes
						owner = {
							is_subject_of = ROOT
						}
					}
				}
				2851 = {
					OR = {
						owned_by = ROOT
						is_part_of_hre = yes
						owner = {
							is_subject_of = ROOT
						}
					}
				}
			}
		}
		effect = {
			hidden_effect = {
				set_global_flag = italy_out_of_HRE #Disables Shadow Kingdom Event.
				every_province = {
					limit = {
						kingdom_italy_region_trigger = yes
						is_part_of_hre = no
						OR = {
							owned_by = ROOT
							owner = {
								is_subject_of = ROOT
							}
						}
					}
					set_in_empire = yes
				}
			}
			custom_tooltip = disable_shadow_kingdom_tooltip
			add_prestige = 25
		}
		ai_will_do = {
			factor = 0
		}
	}

}
