country_decisions = {
	
	adopt_confucianism = {
		potential = {
			OR = {
				dominant_religion = confucianism
				has_country_flag = was_confucianism
			}
			NOT = { religion = confucianism }
			any_owned_province = {
				religion = confucianism
				OR = {
					has_owner_culture = yes
					AND = {
						owner = { has_unified_culture_group = yes }
						culture_group = owner
					}
					has_owner_accepted_culture = yes
					AND = {
						is_core = owner
						is_in_capital_area = yes
					}
				}
			}
		}
		allow = {
			is_force_converted = no
			stability = 1
		}
		effect = {
			if = {
				limit = {
					NOT = { num_of_religion = { religion = confucianism value = 0.25 } }
				}
				custom_tooltip = convert_population_0
				subtract_stability_3 = yes
			}
			if = {
				limit = {
					num_of_religion = { religion = confucianism value = 0.25 }
					NOT = { dominant_religion = confucianism }
				}
				custom_tooltip = convert_population_25
				subtract_stability_2 = yes
			}
			if = {
				limit = {
					dominant_religion = confucianism
					NOT = { num_of_religion = { religion = confucianism value = 0.75 } }
				}
				custom_tooltip = convert_population_50
				subtract_stability_1 = yes
			}
			if = {
				limit = {
					dominant_religion = confucianism
					num_of_religion = { religion = confucianism value = 0.75 }
				}
				custom_tooltip = convert_population_75
			}
			if = {
				limit = { patriarch_authority = 0.75 }
				custom_tooltip = convert_church_strong
				subtract_stability_3 = yes
			}
			if = {
				limit = {
					patriarch_authority = 0.50
					NOT = { patriarch_authority = 0.75 }
				}
				custom_tooltip = convert_piety_moderate
				subtract_stability_2 = yes
			}
			if = {
				limit = {
					patriarch_authority = 0.25
					NOT = { patriarch_authority = 0.50 }
				}
				custom_tooltip = convert_church_weak
				subtract_stability_1 = yes
			}
			if = {
				limit = { NOT = { patriarch_authority = 0.25 } }
				custom_tooltip = convert_church_insignificant
			}
			if = {
				limit = {
					NOT = { capital_scope = { religion = confucianism } }
					NOT = { ADM = 3 }
				}
				custom_tooltip = convert_ruler_incompetent
			}
			if = {
				limit = {
					capital_scope = { religion = confucianism }
					NOT = { ADM = 3 }
				}
				custom_tooltip = convert_ruler_weak
				add_stability_1 = yes
			}
			if = {
				limit = {
					NOT = { capital_scope = { religion = confucianism } }
					ADM = 3
					NOT = { ADM = 5 }
				}
				custom_tooltip = convert_ruler_weak
				add_stability_1 = yes
			}
			if = {
				limit = {
					capital_scope = { religion = confucianism }
					ADM = 3
					NOT = { ADM = 5 }
				}
				custom_tooltip = convert_ruler_moderate
				add_stability_2 = yes
			}
			if = {
				limit = {
					NOT = { capital_scope = { religion = confucianism } }
					ADM = 5
				}
				custom_tooltip = convert_ruler_moderate
				add_stability_2 = yes
			}
			if = {
				limit = {
					capital_scope = { religion = confucianism }
					ADM = 5
				}
				custom_tooltip = convert_ruler_strong
				add_stability_3 = yes
			}
			if = {
				limit = { advisor = philosopher }
				custom_tooltip = convert_philosopher
				add_stability_1 = yes
			}
			if = {
				limit = {
					NOT = { has_country_flag = was_confucianism }
					check_variable = { which = sympathy_to_old_religion value = 1 }
				}
				custom_tooltip = convert_recent
				add_stability_1 = yes
			}
			if = {
				limit = {
					has_country_flag = was_confucianism
					NOT = { check_variable = { which = sympathy_to_old_religion value = 1 } }
				}
				custom_tooltip = convert_previous_old
				add_stability_1 = yes
			}
			if = {
				limit = {
					has_country_flag = was_confucianism
					check_variable = { which = sympathy_to_old_religion value = 1 }
				}
				custom_tooltip = convert_previous_recent
				add_stability_2 = yes
			}
			if = {
				limit = {
					government = chinese_monarchy_4
				}
				country_event = { id = red_turban.13 }
			}
			change_religion = confucianism
		}
		ai_will_do = {
			factor = 1
		}
	}
	
	introduce_imperial_examinations = {
		potential = {
			OR = {
				religion = confucianism
				has_country_modifier = confucianism_dominates
				secondary_religion = confucianism
			}
			NOT = {
				OR = {
					has_country_modifier = examination_system_classics
					has_country_modifier = examination_system_eight_legged_essay
					has_country_modifier = examination_system_five_studies
					has_country_modifier = examination_system_six_arts
					has_country_modifier = examination_system_quotas
					has_country_modifier = examination_system_translated_exams
				}
			}
			NOT = {
				has_country_flag = event_fired
			}
		}
		allow = {
			num_of_cities = 8
			is_at_war = no
			has_any_disaster = no
			stability = 0
			adm_power = 50
		}
		effect = {
			add_adm_power = -50
			add_stability_1 = yes
			country_event = { id = dg_confucian.081 days = 0 }
		}
		ai_will_do = {
			factor = 1
		}
	}
	reform_imperial_examinations = {
		potential = {
			OR = {
				has_country_modifier = examination_system_classics
				has_country_modifier = examination_system_eight_legged_essay
				has_country_modifier = examination_system_five_studies
				has_country_modifier = examination_system_six_arts
				has_country_modifier = examination_system_quotas
				has_country_modifier = examination_system_translated_exams
			}
		}
		allow = {
			is_at_war = no
			has_any_disaster = no
			stability = 0
			adm_power = 25
			custom_trigger_tooltip = {
				NOT = { has_country_flag = confucianism_reformed_examinations }
				tooltip = dg_once_per_ruler
			}
		}
		effect = {
			add_adm_power = -25
			set_country_flag = confucianism_reformed_examinations
			country_event = { id = dg_confucian.081 days = 0 }
		}
		ai_will_do = {
			factor = 1
			modifier = {
				NOT = { has_new_dynasty = yes }
				factor = 0
			}
		}
	}
	end_imperial_examinations = {
		potential = {
			OR = {
				has_country_modifier = examination_system_classics
				has_country_modifier = examination_system_eight_legged_essay
				has_country_modifier = examination_system_five_studies
				has_country_modifier = examination_system_six_arts
				has_country_modifier = examination_system_quotas
				has_country_modifier = examination_system_translated_exams
			}
		}
		allow = {
			stability = 0
			ADM = 3
		}
		effect = {
			subtract_stability_2 = yes
			set_country_flag = confucian_examination_system_ended
			remove_country_modifier = examination_system_classics
			remove_country_modifier = examination_system_eight_legged_essay
			remove_country_modifier = examination_system_five_studies
			remove_country_modifier = examination_system_six_arts
			remove_country_modifier = examination_system_quotas
			remove_country_modifier = examination_system_translated_exams
		}
		ai_will_do = {
			factor = 0
		}
	}
	irregular_imperial_examinations = {
		potential = {
			OR = {
				has_country_modifier = examination_system_classics
				has_country_modifier = examination_system_eight_legged_essay
				has_country_modifier = examination_system_five_studies
				has_country_modifier = examination_system_six_arts
				has_country_modifier = examination_system_quotas
				has_country_modifier = examination_system_translated_exams
			}
		}
		allow = {
			adm_power = 5
			custom_trigger_tooltip = {
				NOT = { has_country_flag = confucian_irregular_examination }
				tooltip = in_between_regular_examinations
			}
		}
		effect = {
			set_country_flag = confucian_irregular_examination
			add_adm_power = -5
			country_event = { id = dg_confucian.086 days = 30 }
		}
		ai_will_do = {
			factor = 1
		}
	}
	
}
