country_decisions = {
	promote_printing_industry = {
		potential = {
			has_global_flag = casual_literacy
			NOT = { has_country_modifier = printing_industry }
			dip_tech = 10
		}
		allow = {
			adm_power = 50
			is_at_war = no
			capital_scope = { has_province_flag = casual_literacy }
		}
		effect = {
			add_adm_power = -50
			add_country_modifier = {
				name = "printing_industry"
				duration = -1
			}
		}
		ai_will_do = {
			factor = 1
		}
	}
	
	enact_stato_da_mar = {
		potential = {
			OR = {
				government = merchant_republic
				government = venetian_republic
			}
			num_of_total_ports = 12
			NOT = { has_country_modifier = stato_da_mar }
		}
		allow = {
			adm_power = 50
			num_of_total_ports = 18
			OR = {
				trade_income_percentage = 0.33
				monthly_income = 150
			}
		}
		effect = {
			add_adm_power = -50
			add_country_modifier = {
				name = "stato_da_mar"
				duration = -1
			}
		}
		ai_will_do = {
			factor = 1
		}
	}
	
}
