#########################################################################
# OPINION MODIFIERS
##########################################################################

##########################################################################
# HARD - DO NOT REMOVE OR RENAME ANY OF THESE
##########################################################################

##############
# FIXED STATE
##############

concession_of_china = {
	opinion = 200
	yearly_decay = 10
}
