# CHA - Champa
# 2010-jan-04 - FB - HT3 changes

government = eastern_monarchy government_rank = 1
mercantilism = 0.0
primary_culture = cham
add_accepted_culture = degar
religion = hinduism
technology_group = chinese
capital = 2318	# Vijaya

1000.1.1 = {
	add_country_modifier = { name = title_5 duration = -1 }
	set_country_flag = title_5
	#set_variable = { which = "centralization_decentralization" value = 4 }
	add_absolutism = -100
	add_absolutism = 10
}

1356.1.1 = {
	monarch = {
		name = "Cheng Bong Nga"
		dynasty = "Cheng"
		ADM = 5
		DIP = 5
		MIL = 6
	}
}

1390.1.1 = {
	heir = {
		name = "Jaya Sinhavarman"
		monarch_name = "Jaya Sinhavarman V"
		dynasty = "Cheng"
		birth_date = 1380.1.1
		death_date = 1441.1.1
		claim = 95
		ADM = 4
		DIP = 3
		MIL = 4
	}
}

1400.1.1 = {
	monarch = {
		name = "Jaya Sinhavarman V"
		dynasty = "Cheng"
		ADM = 4
		DIP = 3
		MIL = 4
	}
}

1421.1.1 = {
	heir = {
		name = "Maija Vijaya"
		monarch_name = "Maija Vijaya"
		dynasty = "Cheng"
		birth_date = 1411.1.1
		death_date = 1446.1.1
		claim = 95
		ADM = 2
		DIP = 3
		MIL = 2
	}
}

1427.1.1 = {
	heir = {
		name = "Moho Kouei-Lai"
		monarch_name = "Moho Kouei-Lai"
		dynasty = "Cheng"
		birth_date = 1427.1.1
		death_date = 1449.1.1
		claim = 95
		ADM = 4
		DIP = 1
		MIL = 1
	}
}

1441.1.1 = {
	monarch = {
		name = "Maija Vijaya"
		dynasty = "Cheng"
		ADM = 2
		DIP = 3
		MIL = 2
	}
}

1447.1.1 = {
	monarch = {
		name = "Moho Kouei-Lai"
		dynasty = "Cheng"
		ADM = 4
		DIP = 1
		MIL = 1
	}
	heir = {
		name = "Maha Kui Yu"
		monarch_name = "Maha Kui Yu"
		dynasty = "Cheng"
		birth_date = 1429.1.1
		death_date = 1458.1.1
		claim = 95
		ADM = 3
		DIP = 2
		MIL = 3
	}
}

1449.1.1 = {
	monarch = {
		name = "Maha Kui Yu"
		dynasty = "Cheng"
		ADM = 3
		DIP = 2
		MIL = 3
	}
}

1458.1.1 = {
	monarch = {
		name = "Maha P'an-lo-yue"
		dynasty = "P'an-lo"
		ADM = 1
		DIP = 2
		MIL = 3
	}
	heir = {
		name = "P'an-lo T'u-ts'uan"
		monarch_name = "P'an-lo T'u-ts'uan"
		dynasty = "P'an-lo"
		birth_date = 1440.1.1
		death_date = 1471.1.1
		claim = 95
		ADM = 1
		DIP = 1
		MIL = 1
	}
}

1460.1.1 = {
	monarch = {
		name = "P'an-lo T'u-ts'uan"
		dynasty = "P'an-lo"
		ADM = 1
		DIP = 1
		MIL = 1
	}
}

1471.4.1 = { capital = 606 }	#Panduranga

1695.1.1 = {
	monarch = {
		name = "Po Saktirai"
		dynasty = "Saktirai"
		ADM = 2
		DIP = 3
		MIL = 3
	}
	heir = {
		name = "Po Ganvuh"
		monarch_name = "Po Ganvuh"
		dynasty = "Saktirai"
		birth_date = 1685.1.1
		death_date = 1731.1.1
		claim = 95
		ADM = 4
		DIP = 3
		MIL = 2
	}
}

1728.1.1 = {
	monarch = {
		name = "Po Ganvuh"
		dynasty = "Saktirai"
		ADM = 4
		DIP = 3
		MIL = 2
	}
	heir = {
		name = "Po Thuttirai"
		monarch_name = "Po Thuttirai"
		dynasty = "Saktirai"
		birth_date = 1705.1.1
		death_date = 1735.1.1
		claim = 95
		ADM = 2
		DIP = 2
		MIL = 3
	}
}

1731.1.1 = {
	monarch = {
		name = "Po Thuttirai"
		dynasty = "Saktirai"
		ADM = 2
		DIP = 2
		MIL = 3
	}
	heir = {
		name = "Po Rattirai"
		monarch_name = "Po Rattirai"
		dynasty = "Saktirai"
		birth_date = 1720.1.1
		death_date = 1763.1.1
		claim = 95
		ADM = 1
		DIP = 3
		MIL = 4
	}
}

1735.1.1 = {
	monarch = {
		name = "Po Rattirai"
		dynasty = "Saktirai"
		ADM = 1
		DIP = 3
		MIL = 4
	}
	heir = {
		name = "Po Tathun"
		monarch_name = "Po Tathun"
		dynasty = "Saktirai"
		birth_date = 1735.1.1
		death_date = 1765.1.1
		claim = 95
		ADM = 4
		DIP = 4
		MIL = 3
	}
}

1763.1.1 = {
	monarch = {
		name = "Po Tathun"
		dynasty = "Saktirai"
		ADM = 4
		DIP = 4
		MIL = 3
	}
	heir = {
		name = "Po Tithuntirai"
		monarch_name = "Po Tithuntirai"
		dynasty = "Saktirai"
		birth_Date = 1740.1.1
		death_date = 1780.1.1
		claim = 90
		ADM = 5
		DIP = 2
		MIL = 3
	}
}

1765.1.1 = {
	monarch = {
		name = "Po Tithuntirai"
		dynasty = "Saktirai"
		ADM = 5
		DIP = 2
		MIL = 3
	}
	heir = {
		name = "Po Tithuntirai"
		monarch_name = "Po Tithuntirai II"
		dynasty = "Saktirai"
		birth_Date = 1765.1.1
		death_date = 1783.1.1
		claim = 95
		ADM = 4
		DIP = 3
		MIL = 2
	}
}

1780.1.1 = {
	monarch = {
		name = "Po Tithuntirai II"
		dynasty = "Saktirai"
		ADM = 4
		DIP = 3
		MIL = 2
	}
	heir = {
		name = "Chei Krei Brei"
		monarch_name = "Chei Krei Brei"
		dynasty = "Saktirai"
		birth_Date = 1760.1.1
		death_date = 1786.1.1
		claim = 90
		ADM = 5
		DIP = 3
		MIL = 5
	}
}

1783.1.1 = {
	monarch = {
		name = "Chei Krei Brei"
		dynasty = "Saktirai"
		ADM = 5
		DIP = 3
		MIL = 5
	}
	heir = {
		name = "Po Tithun"
		monarch_name = "Po Tithun"
		dynasty = "Saktirai"
		birth_date = 1763.1.1
		death_date = 1786.1.1
		claim = 90
		ADM = 4
		DIP = 3
		MIL = 4
	}
}

1786.1.1 = {
	monarch = {
		name = "Po Tithun"
		dynasty = "Saktirai"
		ADM = 4
		DIP = 3
		MIL = 4
	}
	heir = {
		name = "Po Lathun"
		monarch_name = "Po Lathun"
		dynasty = "Saktirai"
		birth_date = 1770.1.1
		death_date = 1799.1.1
		claim = 90
		ADM = 2
		DIP = 3
		MIL = 2
	}
}

1793.1.1 = {
	monarch = {
		name = "Po Lathun"
		dynasty = "Saktirai"
		ADM = 2
		DIP = 3
		MIL = 2
	}
	heir = {
		name = "Po Chong Chan"
		monarch_name = "Po Chong Chan"
		dynasty = "Saktirai"
		birth_date = 1780.1.1
		death_date = 1822.1.1
		claim = 95
		ADM = 3
		DIP = 4
		MIL = 4
	}
}

1799.1.1 = {
	monarch = {
		name = "Po Chong Chan"
		dynasty = "Saktirai"
		ADM = 3
		DIP = 4
		MIL = 4
	}
}
