# MJZ - Jianzhou

government = tribal_nomads_hereditary government_rank = 1
mercantilism = 0.0
technology_group = steppestech
primary_culture = jurchen
religion = tengri_pagan_reformed
capital = 723

1000.1.1 = {
	add_country_modifier = { name = title_3 duration = -1 }
	set_country_flag = title_3
	#set_variable = { which = "centralization_decentralization" value = 5 }
	add_absolutism = -100
	add_absolutism = 0
}

1356.1.1 = {
	monarch = {
		name = "Bukuri Yongson"
		dynasty = "Gioro"
		ADM = 4
		DIP = 2
		MIL = 2
	}
}

1370.1.1 = {
	heir = {
		name = "Mengtemu"
		monarch_name = "Mengtemu"
		dynasty = "Gioro"
		birth_date = 1370.1.1
		death_date = 1433.1.1
		claim = 95
		ADM = 3
		DIP = 3
		MIL = 2
	}
}

1380.1.1 = {
	capital = 725
}

1385.1.1 = {
	capital = 3243
}

1405.1.1 = {
	monarch = {
		name = "Mengtemu"
		dynasty = "Gioro"
		ADM = 3
		DIP = 3
		MIL = 2
	}
}

1405.1.1 = {
	heir = {
		name = "Cungsan"
		monarch_name = "Cungsan"
		dynasty = "Gioro"
		birth_date = 1405.1.1
		death_date = 1467.1.1
		claim = 95
		ADM = 3
		DIP = 2
		MIL = 4
	}
}

1411.5.1 = {
	capital = 3242
}

1433.1.1 = {
	monarch = {
		name = "Cungsan"
		dynasty = "Gioro"
		ADM = 3
		DIP = 2
		MIL = 4
	}
}

1433.1.1 = {
	heir = {
		name = "Tolo"
		monarch_name = "Tolo"
		dynasty = "Gioro"
		birth_date = 1433.1.1
		death_date = 1481.1.1
		claim = 95
		ADM = 1
		DIP = 1
		MIL = 2
	}
}

1467.1.1 = {
	monarch = {
		name = "Tolo"
		dynasty = "Gioro"
		ADM = 1
		DIP = 1
		MIL = 2
	}
}

1467.1.1 = {
	heir = {
		name = "Sibeoci Fiyanggu"
		monarch_name = "Sibeoci Fiyanggu"
		dynasty = "Gioro"
		birth_date = 1467.1.1
		death_date = 1522.1.1
		claim = 95
		ADM = 1
		DIP = 1
		MIL = 2
	}
}

1481.1.1 = {
	monarch = {
		name = "Sibeoci Fiyanggu"
		dynasty = "Gioro"
		ADM = 1
		DIP = 1
		MIL = 2
	}
}

1481.1.1 = {
	heir = {
		name = "Fuman"
		monarch_name = "Fuman"
		dynasty = "Gioro"
		birth_date = 1481.1.1
		death_date = 1542.1.1
		claim = 95
		ADM = 1
		DIP = 1
		MIL = 2
	}
}

1522.1.1 = {
	monarch = {
		name = "Fuman"
		dynasty = "Gioro"
		ADM = 1
		DIP = 1
		MIL = 2
	}
	technology_group = chinese
	unit_type = steppestech
}

1522.1.1 = {
	heir = {
		name = "Giocangga"
		monarch_name = "Giocangga"
		dynasty = "Aisin Gioro"
		birth_date = 1522.1.1
		death_date = 1571.1.1
		claim = 95
		adm = 4
		dip = 2
		mil = 3
	}
	#set_variable = { which = "centralization_decentralization" value = 1 }
	add_absolutism = -100
	add_absolutism = 40
}

1542.1.1 = {
	monarch = {
		name = "Giocangga"
		dynasty = "Aisin Gioro"
		adm = 4
		dip = 2
		mil = 3
	}
}

1542.1.1 = {
	heir = {
		name = "Taksi"
		monarch_name = "Taksi"
		dynasty = "Aisin Gioro"
		birth_date = 1532.1.1
		death_date = 1583.1.1
		claim = 95
		adm = 3
		dip = 3
		mil = 4
	}
}

1571.1.1 = {
	monarch = {
		name = "Taksi"
		dynasty = "Aisin Gioro"
		adm = 3
		dip = 3
		mil = 4
	}
}

1571.1.1 = {
	heir = {
		name = "Nurhachi"
		monarch_name = "Nurhachi"
		dynasty = "Aisin Gioro"
		birth_date = 1559.2.21
		death_date = 1626.9.30
		claim = 95
		adm = 5
		dip = 4
		mil = 6
	}
	define_heir_to_general = {
		fire = 2
		shock = 5
		manuever = 4
		siege = 2
	}
}

1583.1.1 = {
	monarch = {
		name = "Nurhachi"
		dynasty = "Aisin Gioro"
		adm = 5
		dip = 4
		mil = 6
	}
	define_ruler_to_general = {
		fire = 2
		shock = 5
		manuever = 4
		siege = 2
	}
}

1592.11.28 = {
	heir = {
		name = "Huang Taiji"
		monarch_name = "Huang Taiji"
		dynasty = "Aisin Gioro"
		birth_date = 1592.11.28
		death_date = 1643.9.21
		claim = 95
		adm = 4
		dip = 4
		mil = 5
	}
	define_heir_to_general = {
		fire = 0
		shock = 5
		manuever = 3
		siege = 0
	}
}